Place,Name,Country,State,WeightClassKg,BodyweightKg,BirthDate,Age,Squat1Kg,Squat2Kg,Squat3Kg,Best3SquatKg,Bench1Kg,Bench2Kg,Bench3Kg,Best3BenchKg,Deadlift1Kg,Deadlift2Kg,Deadlift3Kg,Best3DeadliftKg,TotalKg,Squat4Kg,Bench4Kg,Deadlift4Kg,Event,Equipment,Sex,Division,Tested
1,Midori Mori,,OR,48,46.5,,17,60,65,70,70,47.5,-52.5,52.5,52.5,100,107.5,115,115,237.5,,,,SBD,Raw,F,Juniors 15-19,Yes
G,Amanda Lairmore,,IL,48,47.8,,22,135,145,-151,145,60,-65,65,65,105,112.5,-117.5,112.5,322.5,,,,SBD,Raw,F,Juniors 20-23,Yes
1,Adriana Guzman,,CA,56,55.4,,19,107.5,115,122.5,122.5,55,60,62.5,62.5,140,150,155,155,340,,,,SBD,Raw,F,Juniors 15-19,Yes
2,Natalie Smith,,OR,56,55.4,,15,85,90,-95,90,50,-55,-55,50,105,110,115,115,255,,,,SBD,Raw,F,Juniors 15-19,Yes
1,Haley Devers,,PA,56,54,,20,132.5,-137.5,-137.5,132.5,-102.5,-105,105,105,140,142.5,150,150,387.5,,107.5,,SBD,Raw,F,Juniors 20-23,Yes
2,Esmeralda Contreras,,CA,56,53.6,,20,102.5,110,-115,110,60,62.5,-65,62.5,137.5,147.5,-155,147.5,320,,,,SBD,Raw,F,Juniors 20-23,Yes
3,Megan Prieto,,CA,56,54.9,,22,97.5,107.5,-115,107.5,52.5,57.5,-62.5,57.5,117.5,125,130,130,295,,,,SBD,Raw,F,Juniors 20-23,Yes
1,Miah Salinas,,CA,60,59.3,,19,115,-117.5,117.5,117.5,72.5,75,-78,75,130,132.5,137.5,137.5,330,,,,SBD,Raw,F,Juniors 15-19,Yes
2,Natalie Jones,,OR,60,59.4,,16,82.5,87.5,-95,87.5,50,52.5,-55,52.5,115,120,125,125,265,,,,SBD,Raw,F,Juniors 15-19,Yes
1,Havvy Ehrich,,OR,67.5,64.8,,19,-127.5,128,132.5,132.5,102.5,107.5,112.5,112.5,140,155,,155,400,,,,SBD,Raw,F,Juniors 15-19,Yes
1,Hannah Calkins,,CA,67.5,65,,20,140,150,152.5,152.5,70,-72.5,,70,160,180,182.5,182.5,405,,,,SBD,Raw,F,Juniors 20-23,Yes
2,Xena Amirani,,CA,67.5,67.1,,22,117.5,-127.5,-130,117.5,70,72.5,-75,72.5,152.5,-157.5,-157.5,152.5,342.5,,,,SBD,Raw,F,Juniors 20-23,Yes
DQ,Josie Powell,,FL,67.5,60.5,,22,135,-142.5,-142.5,135,-65,-70,-70,,-170,,,,,,,,SBD,Raw,F,Juniors 20-23,Yes
1,Giselle Cancino,,CA,75,72.6,,23,140,147.5,-155,147.5,72.5,75,80,80,137.5,147.5,157.5,157.5,385,,,,SBD,Raw,F,Juniors 20-23,Yes
1,Helen Murphy,,OH,82.5,82.2,,18,175,182.5,-187.5,182.5,80,82.5,-85,82.5,165,-177.5,-177.5,165,430,,,,SBD,Raw,F,Juniors 15-19,Yes
1,Sierra Marshman,,OR,82.5,80.7,,23,150,160,-170,160,90,-97.5,-97.5,90,160,-175,-175,160,410,,,,SBD,Raw,F,Juniors 20-23,Yes
1,Mckenzie Haven,,ND,90+,103.4,,17,130,137.5,-145,137.5,72.5,77.5,-82.5,77.5,132.5,145,-157.5,145,360,,,,SBD,Raw,F,Juniors 15-19,Yes
1,Shreena Chopra,,MO,44,41.6,,28,82.5,87.5,92.5,92.5,52.5,-57.5,57.5,57.5,122.5,127.5,-133,127.5,277.5,95,,,SBD,Raw,F,Open,Yes
2,Natalie Diaz,,CA,44,41.5,,32,62.5,67.5,70,70,42.5,-45,45,45,97.5,102.5,-107.5,102.5,217.5,,,,SBD,Raw,F,Open,Yes
G,Amanda Lairmore,,IL,48,47.8,,22,135,145,-151,145,60,-65,65,65,105,112.5,-117.5,112.5,322.5,,,,SBD,Raw,F,Open,Yes
1,Megan Bibbo,,CA,48,46,,33,-87.5,87.5,92.5,92.5,55,57.5,60,60,132.5,135,137.5,137.5,290,,,,SBD,Raw,F,Open,Yes
1,Joanne Ho,,CA,52,51.9,,24,107.5,-110,-110,107.5,-57.5,57.5,60,60,162.5,-170,-170,162.5,330,,,,SBD,Raw,F,Open,Yes
2,Winnie Abramson,,NY,52,50.8,,51,107.5,115,-117.5,115,57.5,62.5,-65,62.5,132.5,140,-142.5,140,317.5,,,,SBD,Raw,F,Open,Yes
3,Noemi Villalobos,,CA,52,51.4,,25,-105,105,110,110,52.5,57.5,-62.5,57.5,145,-155,-155,145,312.5,,,,SBD,Raw,F,Open,Yes
4,Isidra Ramirez,,CA,52,50.2,,33,105,112.5,117.5,117.5,55,57.5,60,60,125,132.5,-140,132.5,310,,,,SBD,Raw,F,Open,Yes
5,Anna Quenano,,CA,52,51.1,,26,102.5,107.5,110,110,70,75,-80,75,115,122.5,-130,122.5,307.5,,,,SBD,Raw,F,Open,Yes
6,Richelle Ledesma,,CA,52,48.2,,27,87.5,95,100,100,52.5,57.5,60,60,122.5,132.5,-137.5,132.5,292.5,,,,SBD,Raw,F,Open,Yes
1,Simone Thomas,,CA,56,54.6,,30,135,145,153,153,77.5,82.5,85,85,187.5,192.5,200,200,438,,,,SBD,Raw,F,Open,Yes
2,Haley Devers,,PA,56,54,,20,132.5,-137.5,-137.5,132.5,-102.5,-105,105,105,140,142.5,150,150,387.5,,107.5,,SBD,Raw,F,Open,Yes
3,Winona Umali,,CA,56,54.6,,25,112.5,117.5,120,120,70,72.5,-75,72.5,177.5,185,192.5,192.5,385,,,,SBD,Raw,F,Open,Yes
4,Elizabeth Quezada,,NV,56,54.6,,29,115,120,-127.5,120,60,65,-70,65,157.5,167.5,-172.5,167.5,352.5,,,,SBD,Raw,F,Open,Yes
5,Michelle Green,,CA,56,54.4,,28,105,110,-112.5,110,60,65,-67.5,65,142.5,-150,-150,142.5,317.5,,,,SBD,Raw,F,Open,Yes
6,Delaney Stone-Kerr,,WA,56,55.2,,25,-107.5,107.5,-117.5,107.5,57.5,-60,-60,57.5,140,-150,150,150,315,,,,SBD,Raw,F,Open,Yes
7,Brooke Rooney,,OR,56,53.6,,31,107.5,112.5,115,115,57.5,60,-62.5,60,107.5,115,-125,115,290,,,,SBD,Raw,F,Open,Yes
8,Natalie Smith,,OR,56,55.4,,15,85,90,-95,90,50,-55,-55,50,105,110,115,115,255,,,,SBD,Raw,F,Open,Yes
1,Dani Edgel,,CO,60,59.3,,34,-137.5,137.5,142.5,142.5,-92.5,92.5,-96,92.5,155,165,-170,165,400,,,,SBD,Raw,F,Open,Yes
2,Daniella Means,,CA,60,58.8,,31,135,140,145,145,80,85,87.5,87.5,160,-165,-165,160,392.5,,,,SBD,Raw,F,Open,Yes
3,Alyssa Wu,,CA,60,58.6,,26,137.5,145,147.5,147.5,75,80,82.5,82.5,142.5,152.5,157.5,157.5,387.5,,,,SBD,Raw,F,Open,Yes
4,Lori Dilling,,OR,60,56.8,,41,120,130,-139,130,80,84,-90,84,145,156,-165,156,370,,,,SBD,Raw,F,Open,Yes
5,Jessica Gaona,,CA,60,58.5,,32,110,-117.5,117.5,117.5,67.5,72.5,-75,72.5,150,160,167.5,167.5,357.5,,,,SBD,Raw,F,Open,Yes
6,Elle Bandy,,IL,60,58.9,,34,127.5,132.5,-137.5,132.5,70,-75,-75,70,145,147.5,-152.5,147.5,350,,,,SBD,Raw,F,Open,Yes
7,Maria Pinto,,FL,60,59.1,,34,107.5,-117.5,117.5,117.5,77.5,-82.5,-82.5,77.5,130,142.5,-150,142.5,337.5,,,,SBD,Raw,F,Open,Yes
8,Jo Anne Siskidis,,NY,60,59.5,,32,100,102.5,-105,102.5,60,65,-70,65,145,150,-155,150,317.5,,,,SBD,Raw,F,Open,Yes
9,Nicole Holstein,,FL,60,59.4,,27,125,-127.5,-127.5,125,55,60,-62.5,60,125,-135,-135,125,310,,,,SBD,Raw,F,Open,Yes
10,Deborah Hatch,,TX,60,58.3,,57,87.5,92.5,97.5,97.5,62.5,-65,65,65,125,135,140,140,302.5,,,,SBD,Raw,F,Open,Yes
11,Gina Jacobson,,WA,60,59.7,,29,92.5,97.5,100,100,55,57.5,-60,57.5,112.5,120,125,125,282.5,,,,SBD,Raw,F,Open,Yes
DQ,Diana Duarte,,CA,60,59.5,,29,90,92.5,95,95,-55,-55,-55,,117.5,120,122.5,122.5,,,,,SBD,Raw,F,Open,Yes
1,Kendra Farber,,OR,67.5,67.2,,34,130,137.5,-142.5,137.5,82.5,87.5,92.5,92.5,192.5,202.5,215,215,445,,,,SBD,Raw,F,Open,Yes
2,Genesis Contreras,,CA,67.5,66.9,,25,152.5,160,165,165,85,92.5,95,95,152.5,162.5,167.5,167.5,427.5,,,,SBD,Raw,F,Open,Yes
3,Stacey Otlin,,CA,67.5,65.5,,44,130,140,-142.5,140,80,85,-87.5,85,162.5,175,185,185,410,,,,SBD,Raw,F,Open,Yes
4,Michelle Leu,,CA,67.5,67.3,,30,130,137.5,142.5,142.5,75,77.5,80,80,165,175,182.5,182.5,405,,,,SBD,Raw,F,Open,Yes
5,Havvy Ehrich,,OR,67.5,64.8,,19,-127.5,128,132.5,132.5,102.5,107.5,112.5,112.5,140,155,,155,400,,,,SBD,Raw,F,Open,Yes
6,Ilyssa Renee Malinis,,CA,67.5,66.9,,27,137.5,-145,-145,137.5,70,75,-77.5,75,170,177.5,-182.5,177.5,390,,,,SBD,Raw,F,Open,Yes
7,Myra Amparo,,CA,67.5,66.1,,32,120,132.5,142.5,142.5,65,70,72.5,72.5,160,172.5,-182.5,172.5,387.5,,,,SBD,Raw,F,Open,Yes
8,Chanel Wade,,MO,67.5,67.2,,30,127.5,132.5,137.5,137.5,65,72.5,-80,72.5,160,170,175,175,385,,,,SBD,Raw,F,Open,Yes
9,Jennifer Sowers,,CA,67.5,63.5,,26,122.5,130,135,135,80,85,-90,85,145,155,-167.5,155,375,,,,SBD,Raw,F,Open,Yes
10,Cassandra Fiorella,,OR,67.5,65.5,,35,112.5,120,127.5,127.5,52.5,55,57.5,57.5,142.5,152.5,160,160,345,,,,SBD,Raw,F,Open,Yes
11,Xena Amirani,,CA,67.5,67.1,,22,117.5,-127.5,-130,117.5,70,72.5,-75,72.5,152.5,-157.5,-157.5,152.5,342.5,,,,SBD,Raw,F,Open,Yes
12,Terri Schreiber,,MI,67.5,67.2,,50,100,107.5,112.5,112.5,65,-67.5,67.5,67.5,120,130,-137.5,130,310,,,,SBD,Raw,F,Open,Yes
13,Jodi Hamlin,,TX,67.5,67.2,,52,82.5,90,97.5,97.5,80,82.5,85.5,85.5,102.5,110,120,120,303,,,,SBD,Raw,F,Open,Yes
14,Andrea O'Connor,,CA,67.5,67,,33,82.5,-87.5,-87.5,82.5,45,-50,50,50,100,110,-115,110,242.5,,,,SBD,Raw,F,Open,Yes
1,Tiffany Savage,,CA,75,74.8,,29,157.5,172.5,-182.5,172.5,112.5,117.5,-122.5,117.5,205,-212.5,-212.5,205,495,,,,SBD,Raw,F,Open,Yes
2,Sharayah Johnson,,OR,75,74.3,,31,160,167.5,172.5,172.5,100,105,107.5,107.5,185,192.5,-197.5,192.5,472.5,,,,SBD,Raw,F,Open,Yes
3,Kristine Kobza,,AZ,75,72.4,,54,140,150,157.5,157.5,-92.5,92.5,101,101,172.5,182.5,192.5,192.5,451,,,195,SBD,Raw,F,Open,Yes
4,Ellen Smith,,WA,75,73.6,,26,145,155,165,165,97.5,102.5,-105,102.5,165,172.5,-180,172.5,440,,,,SBD,Raw,F,Open,Yes
5,Lisa Peterson,,CA,75,73.5,,32,147.5,152.5,-155,152.5,82.5,85,-90,85,175,182.5,-190,182.5,420,,,,SBD,Raw,F,Open,Yes
6,Ebony Winston,,CA,75,72.2,,38,100,110,115,115,75,80,82.5,82.5,160,182.5,,182.5,380,,,,SBD,Raw,F,Open,Yes
7,Luvina Ruiz,,CA,75,73.9,,32,140,150,157.5,157.5,57.5,62.5,-65,62.5,140,150,157.5,157.5,377.5,,,,SBD,Raw,F,Open,Yes
8,Kaitlin Haddad,,NJ,75,73.3,,33,130,137.5,-142.5,137.5,80,-85,-85,80,145,155,-162.5,155,372.5,,,,SBD,Raw,F,Open,Yes
9,Casey Lynch,,OR,75,74,,33,112.5,-120,125,125,62.5,67.5,72.5,72.5,147.5,157.5,167.5,167.5,365,,,,SBD,Raw,F,Open,Yes
10,Heidi Pilling,,UT,75,73.9,,47,105,-112.5,-112.5,105,60,62.5,-65,62.5,127.5,132.5,-137.5,132.5,300,,,,SBD,Raw,F,Open,Yes
1,Amanda Madan,,NJ,82.5,81.3,,31,177.5,185,-187.5,185,77.5,-82.5,82.5,82.5,180,190,-197.5,190,457.5,,,,SBD,Raw,F,Open,Yes
2,Kerrie Montalvan,,SC,82.5,79.8,,39,155,167.5,-175,167.5,90,95,-97.5,95,175,-182.5,-182.5,175,437.5,,,,SBD,Raw,F,Open,Yes
3,Leila Galloway,,TX,82.5,82.3,,43,135,142.5,152.5,152.5,82.5,85,90,90,177.5,195,-197.5,195,437.5,,,,SBD,Raw,F,Open,Yes
4,Helen Murphy,,OH,82.5,82.2,,18,175,182.5,-187.5,182.5,80,82.5,-85,82.5,165,-177.5,-177.5,165,430,,,,SBD,Raw,F,Open,Yes
5,Rosalind Sutch,,PA,82.5,79.9,,41,155,165,170,170,90,-92.5,-92.5,90,155,165,-167.5,165,425,,,,SBD,Raw,F,Open,Yes
6,Sierra Marshman,,OR,82.5,80.7,,23,150,160,-170,160,90,-97.5,-97.5,90,160,-175,-175,160,410,,,,SBD,Raw,F,Open,Yes
7,Adelina Canolli,,TX,82.5,81.8,,26,132.5,137.5,142.5,142.5,70,75,-77.5,75,147.5,155,160,160,377.5,,,,SBD,Raw,F,Open,Yes
1,Audrey Bilaoen,,CA,90,89.3,,24,207.5,-215,-215,207.5,-102.5,102.5,-112.5,102.5,192.5,-197.5,197.5,197.5,507.5,,,,SBD,Raw,F,Open,Yes
2,Susan Chambers,,IL,90,89.7,,33,135,142.5,-145,142.5,75,80,-82.5,80,177.5,187.5,-195,187.5,410,,,,SBD,Raw,F,Open,Yes
3,Suzette Aranda,,CA,90,86.4,,46,117.5,127.5,140,140,70,80,82.5,82.5,152.5,165,172.5,172.5,395,,,,SBD,Raw,F,Open,Yes
4,Christina Ullman,,OH,90,87.5,,50,132.5,-140,140,140,75,77.5,80,80,150,157.5,162.5,162.5,382.5,,,165,SBD,Raw,F,Open,Yes
1,Gabi Dixson,,OR,90+,144.6,,30,200,210,220,220,102.5,112.5,117.5,117.5,227.5,240,-260.5,240,577.5,,,,SBD,Raw,F,Open,Yes
2,Arlene Hernandez,,CA,90+,138.2,,29,167.5,175,182.5,182.5,137.5,142.5,145,145,182.5,-195,195,195,522.5,,,,SBD,Raw,F,Open,Yes
3,Janette Delgado,,CA,90+,108.4,,32,187.5,197.5,207.5,207.5,80,82.5,87.5,87.5,190,195,205,205,500,,,,SBD,Raw,F,Open,Yes
4,Viana Peoples,,NV,90+,122,,24,180,187.5,192.5,192.5,87.5,95,-102.5,95,185,200,210,210,497.5,,,,SBD,Raw,F,Open,Yes
5,Heather Clarke,,CA,90+,104.5,,36,160,170,180,180,92.5,100,-105,100,185,195,205,205,485,,,,SBD,Raw,F,Open,Yes
6,Kathryn Hall,,OR,90+,134.6,,36,172.5,182.5,190,190,87.5,92.5,-95,92.5,185,-200,200,200,482.5,,,,SBD,Raw,F,Open,Yes
7,Jenelle Jayubo,,CA,90+,100.4,,24,157.5,170,175,175,75,80,82.5,82.5,177.5,190,197.5,197.5,455,,,,SBD,Raw,F,Open,Yes
8,Shannon Nichols #1,,OR,90+,103.5,,38,157.5,167.5,175,175,67.5,70,75,75,175,185,192.5,192.5,442.5,,,,SBD,Raw,F,Open,Yes
DQ,Sarah Inabnett,,TX,90+,101.9,,39,-152.5,-152.5,-152.5,,-80,-80,-80,,-172.5,-172.5,-172.5,,,,,,SBD,Raw,F,Open,Yes
1,Winnie Abramson,,NY,52,50.8,,51,107.5,115,-117.5,115,57.5,62.5,-65,62.5,132.5,140,-142.5,140,317.5,,,,SBD,Raw,F,Masters 50-54,Yes
1,Deborah Williams,,WA,52,50.1,,67,75,80,82.5,82.5,35,37.5,-41,37.5,97.5,102.5,-105,102.5,222.5,,,,SBD,Raw,F,Masters 65-69,Yes
DQ,Charlene Mizner,,AZ,56,54.3,,66,55,60,62.5,62.5,-30,-30,-30,,,,,,,,,,SBD,Raw,F,Masters 65-69,Yes
1,Lori Dilling,,OR,60,56.8,,41,120,130,-139,130,80,84,-90,84,145,156,-165,156,370,,,,SBD,Raw,F,Masters 40-44,Yes
2,Kandi Lagas,,OR,60,59,,44,105,115,-120,115,55,60,-65,60,132.5,-140,-140,132.5,307.5,,,,SBD,Raw,F,Masters 40-44,Yes
1,Lisa Torres,,CA,60,59.3,,45,107.5,110,-120,110,57.5,60,-62.5,60,132.5,137.5,145,145,315,,,,SBD,Raw,F,Masters 45-49,Yes
1,Miriam Lawrence,,VT,60,58.8,,54,85,92.5,100,100,47.5,52.5,-55,52.5,97.5,107.5,-112.5,107.5,260,,,,SBD,Raw,F,Masters 50-54,Yes
1,Sharon Bohling,,IN,60,58.4,,58,107.5,115,122.5,122.5,60,65,70,70,135,142.5,150,150,342.5,127.5,75.5,155,SBD,Raw,F,Masters 55-59,Yes
2,Deborah Hatch,,TX,60,58.3,,57,87.5,92.5,97.5,97.5,62.5,-65,65,65,125,135,140,140,302.5,,,,SBD,Raw,F,Masters 55-59,Yes
3,Judy Oberlander,,CA,60,58.2,,58,-92.5,92.5,100,100,50,55,57.5,57.5,120,130,-137.5,130,287.5,,,,SBD,Raw,F,Masters 55-59,Yes
4,Francisca Schwedhelm,,CA,60,58.5,,57,105,110,-117.5,110,47.5,50,-52.5,50,120,127.5,-137.5,127.5,287.5,,,,SBD,Raw,F,Masters 55-59,Yes
1,Maureen Downing,,OR,60,59.5,,62,85,-90,90,90,57.5,60,-62.5,60,102.5,110,117.5,117.5,267.5,,,,SBD,Raw,F,Masters 60-64,Yes
1,Lynn Jacobson,,OR,60,59,,67,-60,-60,60,60,50,55,57.5,57.5,92.5,100,105,105,222.5,,,,SBD,Raw,F,Masters 65-69,Yes
1,Stacey Otlin,,CA,67.5,65.5,,44,130,140,-142.5,140,80,85,-87.5,85,162.5,175,185,185,410,,,,SBD,Raw,F,Masters 40-44,Yes
1,Charsell Kincaid,,MI,67.5,65.6,,54,112.5,120,-125,120,55,60,-62.5,60,142.5,152.5,157.5,157.5,337.5,,,,SBD,Raw,F,Masters 50-54,Yes
2,Terri Schreiber,,MI,67.5,67.2,,50,100,107.5,112.5,112.5,65,-67.5,67.5,67.5,120,130,-137.5,130,310,,,,SBD,Raw,F,Masters 50-54,Yes
3,Jodi Hamlin,,TX,67.5,67.2,,52,82.5,90,97.5,97.5,80,82.5,85.5,85.5,102.5,110,120,120,303,,,,SBD,Raw,F,Masters 50-54,Yes
4,Shannon Paulson,,CA,67.5,66,,51,85,-92.5,92.5,92.5,70,75,-77.5,75,130,135,-137.5,135,302.5,,,,SBD,Raw,F,Masters 50-54,Yes
1,Tessa Yelvington,,TX,67.5,65.4,,59,82.5,87.5,92.5,92.5,57.5,-62.5,-62.5,57.5,117.5,125,-132.5,125,275,,,,SBD,Raw,F,Masters 55-59,Yes
1,Kay Walden,,KS,67.5,66.9,,61,112.5,120,125,125,57.5,60,62.5,62.5,130,142.5,147.5,147.5,335,,,,SBD,Raw,F,Masters 60-64,Yes
2,Valarie Akerson,,IN,67.5,66.4,,62,50,55,60,60,40,42.5,-45,42.5,100,105,-110,105,207.5,,,,SBD,Raw,F,Masters 60-64,Yes
1,Deborah Hasten,,MO,67.5,64.9,,65,65,70,75,75,53,55,-56.5,55,108,112.5,117.5,117.5,247.5,,,,SBD,Raw,F,Masters 65-69,Yes
1,Marybeth Chow,,OR,67.5,65.1,,71,62.5,-65,-67.5,62.5,37.5,-40,-42.5,37.5,102.5,-105,-105,102.5,202.5,,,,SBD,Raw,F,Masters 70-74,Yes
1,Kim Kirby,,UT,75,74.7,,47,-107.5,107.5,-115,107.5,60,65,-67.5,65,130,142.5,147.5,147.5,320,,,,SBD,Raw,F,Masters 45-49,Yes
2,Heidi Pilling,,UT,75,73.9,,47,105,-112.5,-112.5,105,60,62.5,-65,62.5,127.5,132.5,-137.5,132.5,300,,,,SBD,Raw,F,Masters 45-49,Yes
1,Kristine Kobza,,AZ,75,72.4,,54,140,150,157.5,157.5,-92.5,92.5,101,101,172.5,182.5,192.5,192.5,451,,,195,SBD,Raw,F,Masters 50-54,Yes
1,Linda Franklin,,CA,75,70.6,,65,115,122.5,125,125,62.5,70,75,75,145,155,158.5,158.5,358.5,,,,SBD,Raw,F,Masters 65-69,Yes
1,Leila Galloway,,TX,82.5,82.3,,43,135,142.5,152.5,152.5,82.5,85,90,90,177.5,195,-197.5,195,437.5,,,,SBD,Raw,F,Masters 40-44,Yes
2,Rosalind Sutch,,PA,82.5,79.9,,41,155,165,170,170,90,-92.5,-92.5,90,155,165,-167.5,165,425,,,,SBD,Raw,F,Masters 40-44,Yes
1,Michelle Lawing,,CA,82.5,82.4,,46,110,130,135,135,67.5,77.5,-80,77.5,155,170,175.5,175.5,388,,,,SBD,Raw,F,Masters 45-49,Yes
2,Alisa Snyder,,NY,82.5,77.8,,46,-112.5,112.5,117.5,117.5,90,93,93.5,93.5,160,-176,176,176,387,,94,,SBD,Raw,F,Masters 45-49,Yes
3,Aline Wagner,Canada,AB,82.5,80.4,,48,-110,110,-115,110,-70,75,77.5,77.5,130,140,145,145,332.5,,,,SBD,Raw,F,Masters 45-49,Yes
1,Wendie Jackson,,OR,90,89.8,,42,105,120,130,130,72.5,82.5,87.5,87.5,147.5,160,-167.5,160,377.5,,,,SBD,Raw,F,Masters 40-44,Yes
1,Megan Wiesner,,CA,90,87.6,,46,130,137.5,140,140,65,67.5,-70,67.5,182.5,190,192.5,192.5,400,,,197.5,SBD,Raw,F,Masters 45-49,Yes
2,Suzette Aranda,,CA,90,86.4,,46,117.5,127.5,140,140,70,80,82.5,82.5,152.5,165,172.5,172.5,395,,,,SBD,Raw,F,Masters 45-49,Yes
1,Christina Ullman,,OH,90,87.5,,50,132.5,-140,140,140,75,77.5,80,80,150,157.5,162.5,162.5,382.5,,,165,SBD,Raw,F,Masters 50-54,Yes
2,Susan Hines,,WA,90,84.6,,54,135,145,-152.5,145,65,72.5,-80,72.5,145,155,160,160,377.5,,,,SBD,Raw,F,Masters 50-54,Yes
1,Lynn Bassett,,UT,90+,111.6,,56,147.5,-157.5,-160,147.5,92.5,97.5,-100,97.5,147.5,155,-165,155,400,,,,SBD,Raw,F,Masters 55-59,Yes
1,Jeremy Lapham,,CA,56,54.2,,17,140,142.5,-150,142.5,-100,100,-102.5,100,152.5,157.5,-160,157.5,400,,,,SBD,Raw,M,Juniors 15-19,Yes
1,Hunter Isbitsky,,NY,60,59.8,,16,137.5,147.5,160,160,85,95,-100,95,162.5,182.5,195,195,450,,,,SBD,Raw,M,Juniors 15-19,Yes
1,Giovanni Alvarez #1,,IA,60,60,,22,-187.5,-187.5,187.5,187.5,142.5,147.5,-155,147.5,192.5,-205,-205,192.5,527.5,,,,SBD,Raw,M,Juniors 20-23,Yes
1,Zachary Allison,,PA,67.5,66.8,,19,-195.5,195.5,-205,195.5,112.5,120,-125.5,120,230,-237.5,-237.5,230,545.5,,,,SBD,Raw,M,Juniors 15-19,Yes
2,Robert Phouthavong,,CA,67.5,65.9,,17,130,140,150,150,100,107.5,-110,107.5,180,190,197.5,197.5,455,,,,SBD,Raw,M,Juniors 15-19,Yes
1,Hieu Tran,,CA,67.5,65.7,,22,-180,187.5,195,195,105,110,-115,110,230,-237.5,237.5,237.5,542.5,,,,SBD,Raw,M,Juniors 20-23,Yes
2,Brian Mendiola,,CA,67.5,66.5,,23,167.5,-175,175,175,105,-110,-110,105,232.5,245,-265,245,525,,,,SBD,Raw,M,Juniors 20-23,Yes
1,Jaden Codorniz,,CA,75,74.2,,19,180,190,200,200,115,122.5,-125,122.5,260,-275,-275,260,582.5,,,,SBD,Raw,M,Juniors 15-19,Yes
1,Gabriel Youngquist,,TX,75,72.7,,23,-210,210,220,220,115,117.5,122.5,122.5,247.5,-260,-260,247.5,590,,,,SBD,Raw,M,Juniors 20-23,Yes
2,Graham Dirksmeyer,,LA,75,72.3,,23,182.5,192.5,197.5,197.5,105,110,117.5,117.5,215,225,-245,225,540,,,,SBD,Raw,M,Juniors 20-23,Yes
1,Yariel Molina,,NV,82.5,81.2,,18,210,220,227.5,227.5,-120,-122.5,122.5,122.5,227.5,252.5,-265,252.5,602.5,,,,SBD,Raw,M,Juniors 15-19,Yes
2,Zander Guckian,,TX,82.5,81.2,,16,157.5,170,182.5,182.5,95,102.5,107.5,107.5,192.5,210,227.5,227.5,517.5,,,,SBD,Raw,M,Juniors 15-19,Yes
3,Jadin Smith,,WY,82.5,78.2,,18,160,175,-185,175,105,-120,-120,105,170,192.5,200,200,480,,,,SBD,Raw,M,Juniors 15-19,Yes
1,Sean Nguyen,,CA,82.5,79.2,,20,227.5,240,-247.5,240,145,157.5,-172.5,157.5,245,260,272.5,272.5,670,,,,SBD,Raw,M,Juniors 20-23,Yes
2,Nathan Toma,,CA,82.5,76.4,,23,192.5,202.5,205,205,130,-135,-135,130,195,-202.5,,195,530,,,,SBD,Raw,M,Juniors 20-23,Yes
1,Raiden Tea,,AZ,90,88.3,,19,250,265,-275,265,155,165,-170,165,250,267.5,275,275,705,,,,SBD,Raw,M,Juniors 15-19,Yes
1,Leif Griffin,,OR,90,86.9,,20,292.5,-310,-310,292.5,165,172.5,-180,172.5,295,307.5,-317.5,307.5,772.5,,,,SBD,Raw,M,Juniors 20-23,Yes
2,Sherman Forbes,,CA,90,87.1,,23,247.5,265,272.5,272.5,130,137.5,-140,137.5,277.5,292.5,-305,292.5,702.5,,,,SBD,Raw,M,Juniors 20-23,Yes
3,Yousef Jammal,,KS,90,89.6,,23,-227.5,-227.5,227.5,227.5,142.5,152.5,-167.5,152.5,-320,-322.5,322.5,322.5,702.5,,,342.5,SBD,Raw,M,Juniors 20-23,Yes
4,Trevor Philips Brown,,CA,90,88.8,,20,240,250,255,255,142.5,150,-152.5,150,240,252.5,257.5,257.5,662.5,,,,SBD,Raw,M,Juniors 20-23,Yes
5,Andrew Rogers,,AR,90,89,,22,237.5,255,-262.5,255,142.5,150,-152.5,150,237.5,255,-270,255,660,,,,SBD,Raw,M,Juniors 20-23,Yes
6,Miguel Ortega,,CA,90,88.3,,22,190,205,215,215,140,150,155,155,240,257.5,-272.5,257.5,627.5,,,,SBD,Raw,M,Juniors 20-23,Yes
7,Millen Manlapaz,,NV,90,90,,22,215,227.5,235,235,137.5,142.5,-152.5,142.5,240,-252.5,,240,617.5,,,,SBD,Raw,M,Juniors 20-23,Yes
8,Kaleb Glore,,MO,90,89.3,,21,-217.5,217.5,225,225,140,150,-157.5,150,227.5,237.5,-252.5,237.5,612.5,,,,SBD,Raw,M,Juniors 20-23,Yes
1,James Fetzer,,CA,100,98,,18,187.5,205,215,215,122.5,135,137.5,137.5,240,252.5,265,265,617.5,,,,SBD,Raw,M,Juniors 15-19,Yes
2,William Paish,Canada,AB,100,93.8,,18,197.5,212.5,-217.5,212.5,130,140,145,145,220,242.5,255,255,612.5,,,,SBD,Raw,M,Juniors 15-19,Yes
3,Max Chhabra,,IN,100,96,,17,220,-232.5,-242.5,220,102.5,110,-117.5,110,215,-225,225,225,555,,,,SBD,Raw,M,Juniors 15-19,Yes
1,Will Bernhardt,,AR,100,98.9,,22,-265,275,290,290,155,162.5,-170,162.5,275,287.5,-300,287.5,740,,,,SBD,Raw,M,Juniors 20-23,Yes
2,Denver Renner,,NV,100,98.5,,22,225,-252.5,-252.5,225,-125,127.5,-137.5,127.5,252.5,267.5,-275,267.5,620,,,,SBD,Raw,M,Juniors 20-23,Yes
3,Angel Nolte,,CA,100,96.6,,23,200,212.5,-217.5,212.5,147.5,155,160,160,227.5,240,-255,240,612.5,,,,SBD,Raw,M,Juniors 20-23,Yes
4,Jonathan Clark #4,,AZ,100,99,,22,200,-215,215,215,145,155,-162.5,155,240,-255,-255,240,610,,,,SBD,Raw,M,Juniors 20-23,Yes
1,Kholbe Leaks,,IL,110,104.4,,22,250,262.5,272.5,272.5,147.5,157.5,162.5,162.5,295,307.5,315,315,750,,,,SBD,Raw,M,Juniors 20-23,Yes
2,Nicolas Sheeler,,NE,110,109.7,,23,242.5,250,-265,250,142.5,-155,-155,142.5,250,257.5,272.5,272.5,665,,,,SBD,Raw,M,Juniors 20-23,Yes
1,Kyle Parato,,CA,125,122.7,,18,210,227.5,-235,227.5,135,145,-155,145,275,-295,-300,275,647.5,,,,SBD,Raw,M,Juniors 15-19,Yes
1,Shane Calhoon,Canada,BC,125,121.7,,20,-290,305,316,316,160,175,-185,175,280,297.5,-320,297.5,788.5,,,,SBD,Raw,M,Juniors 20-23,Yes
1,Jack Bartlett #1,,OR,140,133.6,,17,290,305,317.5,317.5,145,155,160,160,145,262.5,275,275,752.5,,,,SBD,Raw,M,Juniors 15-19,Yes
1,Khalel Cox,,CA,140+,149.5,,18,215,230,-245,230,155,170,-182.5,170,295,-310,-322.5,295,695,,,,SBD,Raw,M,Juniors 15-19,Yes
1,Luis Sotelo,,CA,52,49.1,,24,120,125,127.5,127.5,72.5,75,-80,75,-220,220,227.5,227.5,430,,,230,SBD,Raw,M,Open,Yes
1,Khemarintr Suwanchote,,WA,60,59.3,,28,150,165,-170,165,112.5,-120,120,120,231,245.5,260.5,260.5,545.5,,,,SBD,Raw,M,Open,Yes
2,Newton Cheng,,CA,60,59,,43,175,187.5,-195,187.5,102.5,110,112.5,112.5,231,245,-255.5,245,545,,,,SBD,Raw,M,Open,Yes
3,Kevin Emboltura,,CA,60,58.2,,29,190,-195,-195,190,117.5,125,-130,125,195,215,-227.5,215,530,,,,SBD,Raw,M,Open,Yes
4,Giovanni Alvarez #1,,IA,60,60,,22,-187.5,-187.5,187.5,187.5,142.5,147.5,-155,147.5,192.5,-205,-205,192.5,527.5,,,,SBD,Raw,M,Open,Yes
5,An Nguyen #4,,CA,60,59.3,,41,167.5,175,-180,175,112.5,120,-125,120,200,210,217.5,217.5,512.5,,,,SBD,Raw,M,Open,Yes
1,Avery Jackson #2,,SC,67.5,66.1,,24,-215,220,238.5,238.5,135,140,-150,140,235,250,262.5,262.5,641,,,,SBD,Raw,M,Open,Yes
2,Joel Valdez,,CA,67.5,67.1,,24,177.5,195,-205,195,122.5,132.5,135,135,265,277.5,286,286,616,,,,SBD,Raw,M,Open,Yes
3,Edwin Taygon,,CA,67.5,66.9,,29,185,195,-202.5,195,125,130,-137.5,130,-230,235,240,240,565,,,,SBD,Raw,M,Open,Yes
4,Zachary Allison,,PA,67.5,66.8,,19,-195.5,195.5,-205,195.5,112.5,120,-125.5,120,230,-237.5,-237.5,230,545.5,,,,SBD,Raw,M,Open,Yes
5,Billy Alcaide,,AK,67.5,66.5,,24,175,185,-190,185,120,127.5,-132.5,127.5,210,-222.5,232.5,232.5,545,,,,SBD,Raw,M,Open,Yes
6,Matthew Santinello,,CA,67.5,65.2,,32,-190,-195,195,195,90,-95,-95,90,235,245,-252.5,245,530,,,,SBD,Raw,M,Open,Yes
7,Craig Tino,,CA,67.5,65.9,,29,162.5,167.5,172.5,172.5,97.5,102.5,107.5,107.5,235,242.5,-250,242.5,522.5,,,,SBD,Raw,M,Open,Yes
8,Don Collins,,CA,67.5,65.3,,61,168,172.5,-175,172.5,-94,94,97.5,97.5,205,210,213,213,483,,,,SBD,Raw,M,Open,Yes
9,Nicholas Rego,,MA,67.5,64.3,,24,162.5,167.5,172.5,172.5,92.5,-97.5,102.5,102.5,175,185,-197.5,185,460,,,,SBD,Raw,M,Open,Yes
10,John Wehrli,,CA,67.5,65.2,,57,135,145.5,-147.5,145.5,100,-102.5,-102.5,100,175,-186,186,186,431.5,,,,SBD,Raw,M,Open,Yes
11,Matthew Chapman #1,,HI,67.5,66.7,,53,125,137.5,-140,137.5,115,120,122,122,137.5,147.5,160,160,419.5,,123,,SBD,Raw,M,Open,Yes
1,Alexander Canton,,LA,75,74.4,,30,240,250,-255,250,170,177.5,-180,177.5,227.5,-242.5,-242.5,227.5,655,,,,SBD,Raw,M,Open,Yes
2,Joshua Heiss,,PA,75,72.2,,24,192.5,202.5,212.5,212.5,135,142.5,150,150,240,260,275,275,637.5,,,,SBD,Raw,M,Open,Yes
3,Zeesha Braslawsce,,CA,75,74,,26,230,240,-247.5,240,140,145,-147.5,145,245,252.5,-260,252.5,637.5,,,,SBD,Raw,M,Open,Yes
4,Nick Russo,,CA,75,74.8,,29,212.5,225,230,230,125,130,-137.5,130,235,245,252.5,252.5,612.5,,,,SBD,Raw,M,Open,Yes
5,Jaden Codorniz,,CA,75,74.2,,19,180,190,200,200,115,122.5,-125,122.5,260,-275,-275,260,582.5,,,,SBD,Raw,M,Open,Yes
6,Brian Nguyen,,CA,75,70,,24,210,220,-225,220,130,135,-140,135,210,220,225,225,580,,,,SBD,Raw,M,Open,Yes
7,Max Hall,Canada,AB,75,73.4,,26,197.5,205,210,210,107.5,112.5,-117.5,112.5,235,245,252.5,252.5,575,,,,SBD,Raw,M,Open,Yes
8,Jeffrey Fajardo II,,NV,75,74.5,,30,185,200,-212.5,200,122.5,132.5,137.5,137.5,215,227.5,-240,227.5,565,,,,SBD,Raw,M,Open,Yes
9,Joe Hays,,MN,75,73,,61,143,150,155,155,100,107.5,-116,107.5,190,-205,-205,190,452.5,,,,SBD,Raw,M,Open,Yes
DQ,Christopher Vashi,,OH,75,73.5,,45,142.5,147.5,-152.5,147.5,,,,,,,,,,,,,SBD,Raw,M,Open,Yes
1,Johnathon Carlisle,,TX,82.5,81,,27,-247.5,-250,250,250,192.5,-197.5,-197.5,192.5,292.5,297.5,-305,297.5,740,,,,SBD,Raw,M,Open,Yes
2,Richard Pham,,CA,82.5,82.4,,26,262.5,277.5,282.5,282.5,170,-177.5,177.5,177.5,260,267.5,-277.5,267.5,727.5,,,,SBD,Raw,M,Open,Yes
3,Alex Gaynor,,CA,82.5,82.4,,25,245,260,-267.5,260,157.5,167.5,175,175,255,270,-275,270,705,,,,SBD,Raw,M,Open,Yes
4,David Johnson,,CA,82.5,81.8,,37,165,185,197.5,197.5,182.5,192.5,-195,192.5,215,230,-247.5,230,620,,,,SBD,Raw,M,Open,Yes
5,Corbin Bethurem,,CA,82.5,81.8,,24,190,-200,202.5,202.5,145,152.5,-157.5,152.5,245,255,260,260,615,,,,SBD,Raw,M,Open,Yes
6,Marcus Herron,,CA,82.5,82.2,,27,192.5,205,215,215,140,145,-150,145,220,230,-235,230,590,,,,SBD,Raw,M,Open,Yes
7,Zach Campbell,,SD,82.5,81.1,,29,192.5,200,205,205,145,152.5,155,155,205,217.5,-227.5,217.5,577.5,,,,SBD,Raw,M,Open,Yes
8,David Gibson #3,,GA,82.5,77.3,,43,-170,170,182.5,182.5,115,120,125,125,-242.5,242.5,252.5,252.5,560,,,,SBD,Raw,M,Open,Yes
9,Zander Guckian,,TX,82.5,81.2,,16,157.5,170,182.5,182.5,95,102.5,107.5,107.5,192.5,210,227.5,227.5,517.5,,,,SBD,Raw,M,Open,Yes
1,Leif Griffin,,OR,90,86.9,,20,292.5,-310,-310,292.5,165,172.5,-180,172.5,295,307.5,-317.5,307.5,772.5,,,,SBD,Raw,M,Open,Yes
2,Jefferson Shue,,NV,90,89.2,,28,232.5,245,257.5,257.5,175,182.5,-187.5,182.5,302.5,317.5,330,330,770,,,,SBD,Raw,M,Open,Yes
3,Danny Sre,,CA,90,88.3,,32,250,-265,-265,250,200,210,-227.5,210,295,305,-317.5,305,765,,,,SBD,Raw,M,Open,Yes
4,Raymond Saraiva,,MA,90,89.4,,30,235,247.5,-255,247.5,147.5,157.5,-162.5,157.5,322.5,-338,-343,322.5,727.5,,,,SBD,Raw,M,Open,Yes
5,Andrew Schendel,,WA,90,88.9,,36,212.5,227.5,232.5,232.5,150,162.5,167.5,167.5,295,310,322.5,322.5,722.5,,,,SBD,Raw,M,Open,Yes
6,Michael Cooney,,TX,90,83.6,,25,255,-265,-265,255,155,-160,-160,155,295,-307.5,-307.5,295,705,,,,SBD,Raw,M,Open,Yes
7,Raiden Tea,,AZ,90,88.3,,19,250,265,-275,265,155,165,-170,165,250,267.5,275,275,705,,,,SBD,Raw,M,Open,Yes
8,Kirk Whittenberg,,VA,90,88.9,,39,225,235,-245,235,192.5,200,,200,255,270,-285,270,705,,,,SBD,Raw,M,Open,Yes
9,Sherman Forbes,,CA,90,87.1,,23,247.5,265,272.5,272.5,130,137.5,-140,137.5,277.5,292.5,-305,292.5,702.5,,,,SBD,Raw,M,Open,Yes
10,Yousef Jammal,,KS,90,89.6,,23,-227.5,-227.5,227.5,227.5,142.5,152.5,-167.5,152.5,-320,-322.5,322.5,322.5,702.5,,,342.5,SBD,Raw,M,Open,Yes
11,Sebastian Mogielnicki,,NV,90,88.5,,28,220,227.5,-235,227.5,147.5,-157.5,157.5,157.5,272.5,285,292.5,292.5,677.5,,,,SBD,Raw,M,Open,Yes
12,Christian Oxford,,CA,90,88.3,,30,240,-255,-255,240,145,155,-162.5,155,245,265,-272.5,265,660,,,,SBD,Raw,M,Open,Yes
13,Angelo Garcia #1,,CA,90,88.9,,28,217.5,225,232.5,232.5,172.5,182.5,187.5,187.5,220,230,235,235,655,,,,SBD,Raw,M,Open,Yes
14,Miguel Ortega,,CA,90,88.3,,22,190,205,215,215,140,150,155,155,240,257.5,-272.5,257.5,627.5,,,,SBD,Raw,M,Open,Yes
15,David Skolnik,,AZ,90,89.7,,32,185,195,-205,195,132.5,140,147.5,147.5,215,225,237.5,237.5,580,,,,SBD,Raw,M,Open,Yes
1,Dwardly Edouard,,PA,100,96,,25,295,-317.5,-317.5,295,182.5,192.5,-198,192.5,320,340,-353,340,827.5,,,,SBD,Raw,M,Open,Yes
2,Ollie Meadows,,CA,100,91.3,,37,247.5,260,-265,260,182.5,190,-192.5,190,295,312.5,-315,312.5,762.5,,,,SBD,Raw,M,Open,Yes
3,Andre Palmer,,FL,100,98.7,,26,245,250,260,260,175,185,-195,185,300,312.5,-320,312.5,757.5,,,,SBD,Raw,M,Open,Yes
4,Will Bernhardt,,AR,100,98.9,,22,-265,275,290,290,155,162.5,-170,162.5,275,287.5,-300,287.5,740,,,,SBD,Raw,M,Open,Yes
5,David Sugerik,,OR,100,98.3,,37,237.5,250,265,265,162.5,175,180,180,247.5,265,277.5,277.5,722.5,,,,SBD,Raw,M,Open,Yes
6,Ahmed Dregia,,CA,100,96.5,,24,215,230,240,240,150,162.5,-165,162.5,275,300,317.5,317.5,720,,,,SBD,Raw,M,Open,Yes
7,Gregory Diaz,,CA,100,94.4,,35,220,230,-240,230,137.5,140,-142.5,140,265,275,280,280,650,,,,SBD,Raw,M,Open,Yes
8,Gabriel Pena-Ramos,,CA,100,98.5,,27,210,215,220,220,140,150,155,155,245,260,272.5,272.5,647.5,,,,SBD,Raw,M,Open,Yes
9,Oscar Martinez-Hernandez,,NE,100,97.3,,33,195,212.5,227.5,227.5,145,155,-162.5,155,220,222.5,-247.5,222.5,605,,,,SBD,Raw,M,Open,Yes
10,Chris Mckenna,,CA,100,98.7,,37,185,195,202.5,202.5,145,152.5,-155,152.5,250,-262.5,,250,605,,,,SBD,Raw,M,Open,Yes
1,Daniel Wade #1,,MO,110,107.8,,29,-300,300,320,320,195,200,-205,200,-330,332.5,352.5,352.5,872.5,,,,SBD,Raw,M,Open,Yes
2,Sebastian Padilla,,CA,110,107.7,,22,220,230,237.5,237.5,150,160,162.5,162.5,300,315,325,325,725,,,,SBD,Raw,M,Open,Yes
3,David Clark,,AZ,110,105.6,,28,215,225,235,235,165,172.5,177.5,177.5,280,295,310,310,722.5,,,,SBD,Raw,M,Open,Yes
4,Terrance McBride,,CA,110,108.9,,27,220,-230,-230,220,170,-177.5,-177.5,170,320,330,-340,330,720,,,,SBD,Raw,M,Open,Yes
5,Patrick Thomas #1,,OR,110,107.8,,33,195,205,215,215,147.5,155,160,160,307.5,-325,340,340,715,,,,SBD,Raw,M,Open,Yes
6,Ruben Granados,,CA,110,106.4,,27,-225,225,240,240,150,162.5,167.5,167.5,225,245,252.5,252.5,660,,,,SBD,Raw,M,Open,Yes
7,Robert Woodworth,,CA,110,109.9,,26,217.5,235,245,245,147.5,160,-165,160,237.5,-255,255,255,660,,,,SBD,Raw,M,Open,Yes
8,Jonathan Adams,,CA,110,110,,36,165,177.5,182.5,182.5,165,192.5,-197.5,192.5,225,250,272.5,272.5,647.5,,,,SBD,Raw,M,Open,Yes
DQ,Marquis Ware,,CA,110,109.9,,30,-250,-250,250,250,175,185,-200,185,-270,-290,-290,,,,,,SBD,Raw,M,Open,Yes
1,Alejandro Wickham,,PA,125,123.3,,36,305,325,-332.5,325,192.5,202.5,205,205,290,310,317.5,317.5,847.5,,,,SBD,Raw,M,Open,Yes
2,Marc Sanchez,,CO,125,123.7,,24,310,325,337.5,337.5,160,170,-175,170,312.5,327.5,340,340,847.5,,,,SBD,Raw,M,Open,Yes
3,Tyler Gulbransen,,IN,125,124.3,,27,227.5,250,260,260,170,177.5,180,180,345,365.5,380.5,380.5,820.5,,,,SBD,Raw,M,Open,Yes
4,Kyle Parato,,CA,125,122.7,,18,210,227.5,-235,227.5,135,145,-155,145,275,-295,-300,275,647.5,,,,SBD,Raw,M,Open,Yes
1,Bobby Martinez,,CA,140,127,,37,247.5,-262.5,,247.5,-207.5,-207.5,207.5,207.5,257.5,272.5,285,285,740,,,,SBD,Raw,M,Open,Yes
2,Damian Solis,,NC,140,132.7,,35,240,-255,255,255,160,170,-177.5,170,290,305,-317.5,305,730,,,,SBD,Raw,M,Open,Yes
3,Matt Slate,,NV,140,134.7,,40,247.5,255,260,260,197.5,200,-205,200,237.5,247.5,250,250,710,,,,SBD,Raw,M,Open,Yes
DQ,Ronnie Castro,,CA,140,139,,39,287.5,300,-307.5,300,-165,-165,-165,,252.5,257.5,265,265,,,,,SBD,Raw,M,Open,Yes
1,Brandon Rosete,,CA,140+,161.1,,25,350,367.5,382.5,382.5,157.5,167.5,175,175,310,330,337.5,337.5,895,,,,SBD,Raw,M,Open,Yes
2,Andrew Morkin,Canada,AB,140+,165.3,,35,247.5,267.5,282.5,282.5,155,165,-177.5,165,-247.5,260,277.5,277.5,725,,,,SBD,Raw,M,Open,Yes
1,Newton Cheng,,CA,60,59,,43,175,187.5,-195,187.5,102.5,110,112.5,112.5,231,245,-255.5,245,545,,,,SBD,Raw,M,Masters 40-44,Yes
2,An Nguyen #4,,CA,60,59.3,,41,167.5,175,-180,175,112.5,120,-125,120,200,210,217.5,217.5,512.5,,,,SBD,Raw,M,Masters 40-44,Yes
1,Matthew Chapman #1,,HI,67.5,66.7,,53,125,137.5,-140,137.5,115,120,122,122,137.5,147.5,160,160,419.5,,123,,SBD,Raw,M,Masters 50-54,Yes
1,John Wehrli,,CA,67.5,65.2,,57,135,145.5,-147.5,145.5,100,-102.5,-102.5,100,175,-186,186,186,431.5,,,,SBD,Raw,M,Masters 55-59,Yes
1,Don Collins,,CA,67.5,65.3,,61,168,172.5,-175,172.5,-94,94,97.5,97.5,205,210,213,213,483,,,,SBD,Raw,M,Masters 60-64,Yes
1,Louis Magiera,,RI,67.5,65.5,,76,102.5,-110,-110,102.5,52.5,60,-67.5,60,140,157.5,,157.5,320,,,,SBD,Raw,M,Masters 75-79,Yes
DQ,Christopher Vashi,,OH,75,73.5,,45,142.5,147.5,-152.5,147.5,,,,,,,,,,,,,SBD,Raw,M,Masters 45-49,Yes
1,Joe Hays,,MN,75,73,,61,143,150,155,155,100,107.5,-116,107.5,190,-205,-205,190,452.5,,,,SBD,Raw,M,Masters 60-64,Yes
2,Jeffrey Stanley,,CA,75,67.7,,63,100,110,117.5,117.5,82.5,90,-95,90,180,190,200,200,407.5,,,,SBD,Raw,M,Masters 60-64,Yes
1,Jim Gallagher #1,,CA,75,71.1,,86,67.5,75,82.5,82.5,40,45,50,50,135,147.5,155,155,287.5,,,,SBD,Raw,M,Masters 80+,Yes
2,Michael Harrington,,AZ,75,73.6,,83,70,-75,75,75,60,62.5,65,65,120,-130,-130,120,260,,,,SBD,Raw,M,Masters 80+,Yes
1,David Gibson #3,,GA,82.5,77.3,,43,-170,170,182.5,182.5,115,120,125,125,-242.5,242.5,252.5,252.5,560,,,,SBD,Raw,M,Masters 40-44,Yes
2,Robert Strupczewski,,CA,82.5,80.4,,44,187.5,-195,-195,187.5,135,137.5,-142.5,137.5,227.5,230,-232.5,230,555,,,,SBD,Raw,M,Masters 40-44,Yes
1,Peter Sun,,CA,82.5,81.8,,45,185,197.5,-205,197.5,130,137.5,143.5,143.5,-247.5,247.5,-265,247.5,588.5,,,,SBD,Raw,M,Masters 45-49,Yes
2,Jesus Fragoso,,ID,82.5,80.7,,48,125,180,-190,180,132.5,143,147.5,147.5,-250,250,-262.5,250,577.5,,,,SBD,Raw,M,Masters 45-49,Yes
3,Donnie Campbell,,TX,82.5,81.7,,47,180,195,-200,195,102.5,107.5,110,110,210,227.5,232.5,232.5,537.5,,,,SBD,Raw,M,Masters 45-49,Yes
1,Tom Newell,,NM,82.5,80.3,,58,155,-165,-165,155,117.5,122.5,125,125,180,190,197.5,197.5,477.5,,,,SBD,Raw,M,Masters 55-59,Yes
2,Greg Eyerly,,OR,82.5,81.8,,56,147.5,150,-157.5,150,112.5,117.5,122.5,122.5,185,192.5,205,205,477.5,,,,SBD,Raw,M,Masters 55-59,Yes
1,Mark Swinton,,CA,82.5,81.2,,60,145,150,155,155,127.5,132.5,-134,132.5,190,197.5,205,205,492.5,,,,SBD,Raw,M,Masters 60-64,Yes
2,Hiram Chee,,CA,82.5,80.7,,62,-125,125,135,135,102.5,107.5,112.5,112.5,200,216,-222.5,216,463.5,,,,SBD,Raw,M,Masters 60-64,Yes
3,Richard Tucker,,MO,82.5,81.4,,63,120,-135,135,135,105,112.5,115,115,150,162.5,170,170,420,,,,SBD,Raw,M,Masters 60-64,Yes
1,Edward Regua,,NM,82.5,80.7,,69,-137.5,137.5,146,146,117.5,122.5,-127.5,122.5,175,185,190,190,458.5,,,,SBD,Raw,M,Masters 65-69,Yes
1,Michael Heisman,,CA,82.5,80.3,,70,115,120,-125,120,60,-70,70,70,172.5,177.5,-180,177.5,367.5,,,,SBD,Raw,M,Masters 70-74,Yes
1,Carlos Acosta #1,,CA,82.5,80.1,,82,-62.5,-72.5,75,75,-62.5,67.5,72.5,72.5,-107.5,117.5,127,127,274.5,,,,SBD,Raw,M,Masters 80+,Yes
2,David Robinson,,CO,82.5,76.6,,80,60,-77.5,-80,60,75,85,-87.5,85,107.5,115,120,120,265,,,,SBD,Raw,M,Masters 80+,Yes
1,Jensen Monterrey,,CA,90,89.5,,48,175,-190,-190,175,125,137.5,-142.5,137.5,220,237.5,,237.5,550,,,,SBD,Raw,M,Masters 45-49,Yes
1,Jason Roberts #2,,HI,90,88.6,,52,162.5,170,182.5,182.5,130,140,-142.5,140,200,215,-227.5,215,537.5,,,,SBD,Raw,M,Masters 50-54,Yes
1,Bryan Hartman,,CA,90,89.1,,55,162.5,167.5,-172.5,167.5,135,-137.5,-137.5,135,197.5,-205,-205,197.5,500,,,,SBD,Raw,M,Masters 55-59,Yes
1,Scott Sciaretta #1,,MT,90,89,,60,175,186,-195,186,127.5,-135.5,-135.5,127.5,207.5,220,232.5,232.5,546,,,,SBD,Raw,M,Masters 60-64,Yes
1,Terence Plotsky,,CA,90,86.5,,80,75,85,-90,85,-75,75,-78,75,123,127.5,-130,127.5,287.5,,,,SBD,Raw,M,Masters 80+,Yes
1,Dain Pankratz,,CA,100,98.4,,43,205,215,227.5,227.5,182.5,-190.5,-190.5,182.5,237.5,250,-267.5,250,660,,,,SBD,Raw,M,Masters 40-44,Yes
1,Devin Marsh,,OR,100,92.9,,50,210,-220.5,-220.5,210,135,145,-150,145,232.5,240,-255,240,595,,,,SBD,Raw,M,Masters 50-54,Yes
1,Antony Arakkal,,MI,110,108.3,,43,272.5,-285,-285,272.5,135,-142.5,142.5,142.5,272.5,282.5,290,290,705,,,,SBD,Raw,M,Masters 40-44,Yes
2,Bradley Besson,,OH,110,106.4,,43,230,250,260,260,140,155,-165,155,230,245,255,255,670,,,,SBD,Raw,M,Masters 40-44,Yes
1,Eric Campbell #1,,CA,110,103.2,,57,175,190,,190,135,145,-147.5,145,185,200,-210,200,535,,,,SBD,Raw,M,Masters 55-59,Yes
DQ,Anthony Smith #2,,NM,110,106.5,,56,-177.5,177.5,-195,177.5,-160,-170,-170,,-195,,,,,,,,SBD,Raw,M,Masters 55-59,Yes
1,Anand Pai,,CA,110,107.3,,61,-165,165,-192.5,165,95,100,,100,215,230,-235,230,495,,,,SBD,Raw,M,Masters 60-64,Yes
1,Alan Bessey,Canada,BC,110,108.6,,68,165,175,-182.5,175,137.5,-145,-145,137.5,185,-207.5,-207.5,185,497.5,,,,SBD,Raw,M,Masters 65-69,Yes
2,Steve Busch,,CA,110,104.5,,69,160,172.5,182.5,182.5,80,87.5,-90,87.5,207.5,222.5,-232.5,222.5,492.5,,,,SBD,Raw,M,Masters 65-69,Yes
1,Mark Hurling,,IL,110,106.8,,71,-110,-110,110,110,85,-102.5,-102.5,85,152.5,160,-162.5,160,355,,,,SBD,Raw,M,Masters 70-74,Yes
DQ,Raymond Halling,,WA,110,102.1,,84,-82.5,-82.5,-82.5,,75,80,82.5,82.5,100,110,120,120,,,,,SBD,Raw,M,Masters 80+,Yes
1,Nate Gonzales #1,,VA,125,121.1,,47,247.5,260,-267.5,260,160,170,180,180,237.5,-255,-255,237.5,677.5,,,,SBD,Raw,M,Masters 45-49,Yes
1,Matt Slate,,NV,140,134.7,,40,247.5,255,260,260,197.5,200,-205,200,237.5,247.5,250,250,710,,,,SBD,Raw,M,Masters 40-44,Yes
1,Mark Branham,,IN,140,126.7,,67,125,-182.5,-182.5,125,125,145,-147.5,145,150,195,-197.5,195,465,,,,SBD,Raw,M,Masters 65-69,Yes
1,Phongsathorn Churnakoses,,CA,140+,154.4,,40,242.5,255,260,260,172.5,177.5,-182.5,177.5,285,-302.5,-302.5,285,722.5,,,,SBD,Raw,M,Masters 40-44,Yes
2,Geremia Doan,,CA,140+,143.9,,44,210,227.5,237.5,237.5,175,187.5,-195,187.5,220,235,247.5,247.5,672.5,,,,SBD,Raw,M,Masters 40-44,Yes
1,Mike Shae,,MT,140+,161,,51,205,215,227.5,227.5,145,155,-165,155,220,235,-248,235,617.5,,,,SBD,Raw,M,Masters 50-54,Yes
1,Matthew Fragner,,CA,140+,140.8,,67,115,127.5,137.5,137.5,117.5,130,-137.5,130,155,180,187.5,187.5,455,,,,SBD,Raw,M,Masters 65-69,Yes
1,Briana Negron,,FL,52,51.9,,22,107.5,115,120,120,65,70,72.5,72.5,145,152.5,-160,152.5,345,,,,SBD,Wraps,F,Juniors 20-23,Yes
1,Gabriella Hoyt,,FL,60,59.4,,22,122.5,-130,130,130,62.5,70,75,75,127.5,135,-147.5,135,340,,,,SBD,Wraps,F,Juniors 20-23,Yes
2,Maria Cardenas,,CA,60,59.7,,23,125,132.5,-137.5,132.5,67.5,75,-80,75,115,122.5,-132.5,122.5,330,,,,SBD,Wraps,F,Juniors 20-23,Yes
1,Bailey Stettmeier,,AR,67.5,65.7,,23,160,170,-175,170,75,85,-87.5,85,167.5,182.5,185.5,185.5,440.5,,,186.5,SBD,Wraps,F,Juniors 20-23,Yes
1,Milan Bunker,,NV,90+,119.4,,19,147.5,157.5,-165,157.5,75,80,-82.5,80,165,185,187.5,187.5,425,,,,SBD,Wraps,F,Juniors 15-19,Yes
1,Briana Negron,,FL,52,51.9,,22,107.5,115,120,120,65,70,72.5,72.5,145,152.5,-160,152.5,345,,,,SBD,Wraps,F,Open,Yes
2,Nicole Aldrete,,CA,52,50.5,1989-10-28,32,105,112.5,117.5,117.5,62.5,67.5,70,70,130,145,-152.5,145,332.5,,,,SBD,Wraps,F,Open,Yes
1,Amanda Brady,,NM,60,58.4,,33,-115,-115,115,115,80,85,-87.5,85,150,155,-160,155,355,,,,SBD,Wraps,F,Open,Yes
2,Gabriella Hoyt,,FL,60,59.4,,22,122.5,-130,130,130,62.5,70,75,75,127.5,135,-147.5,135,340,,,,SBD,Wraps,F,Open,Yes
3,Sarah Strong,,CA,60,58.6,,33,117.5,-125,-125,117.5,-65,65,-72.5,65,125,135,-142.5,135,317.5,,,,SBD,Wraps,F,Open,Yes
1,Bailey Stettmeier,,AR,67.5,65.7,,23,160,170,-175,170,75,85,-87.5,85,167.5,182.5,185.5,185.5,440.5,,,186.5,SBD,Wraps,F,Open,Yes
2,Danielle Douglas,,IN,67.5,66.5,,28,145,155,167.5,167.5,80,85,-92.5,85,130,145,162.5,162.5,415,,,,SBD,Wraps,F,Open,Yes
3,Sarah Meyer,,OK,67.5,67,,28,142.5,155,160,160,70,75,-80,75,165,170,177.5,177.5,412.5,,,,SBD,Wraps,F,Open,Yes
4,Kate Arrant,,AZ,67.5,62.7,,33,142.5,-152.5,152.5,152.5,55,60,67.5,67.5,142.5,155,162.5,162.5,382.5,,,,SBD,Wraps,F,Open,Yes
5,Stephanie Baken,,CA,67.5,67.1,,35,112.5,120,125,125,75,82.5,-87.5,82.5,127.5,137.5,142.5,142.5,350,,,,SBD,Wraps,F,Open,Yes
1,Rosie Pulido,,CA,75,70.6,,32,175,185,-191,185,97.5,102.5,105,105,190,200,212.5,212.5,502.5,,110,,SBD,Wraps,F,Open,Yes
2,Michelle Madruga,,CA,75,73,,46,-122.5,122.5,130,130,80,85,-87.5,85,167.5,172,-175,172,387,,,,SBD,Wraps,F,Open,Yes
1,Danielle Massingill,,CO,82.5,75.4,,29,177.5,192.5,195,195,-100,100,105,105,170,177.5,-185,177.5,477.5,,,,SBD,Wraps,F,Open,Yes
2,Charlie Cheryl Ritchie,,OR,82.5,81.6,,50,-147.5,155.5,162.5,162.5,112.5,120.5,-122.5,120.5,167.5,180,187.5,187.5,470.5,,,190,SBD,Wraps,F,Open,Yes
3,Katrina Curtis,,FL,82.5,81.9,,26,-155,155,-162.5,155,85,92.5,-100,92.5,165,175,182.5,182.5,430,,,,SBD,Wraps,F,Open,Yes
4,Kimberly Brown,,CA,82.5,81.5,,55,120,130,-137.5,130,85,91,95,95,160,172.5,-181.5,172.5,397.5,,,,SBD,Wraps,F,Open,Yes
1,Franchesca Vermillion,,OR,90,87.4,,41,120,127.5,-137.5,127.5,87.5,92.5,-95,92.5,157.5,168,170,170,390,,,,SBD,Wraps,F,Open,Yes
1,Milan Bunker,,NV,90+,119.4,,19,147.5,157.5,-165,157.5,75,80,-82.5,80,165,185,187.5,187.5,425,,,,SBD,Wraps,F,Open,Yes
1,Juanita Leong,Canada,AB,60,58.3,,47,-122.5,122.5,-127.5,122.5,50,,57.5,57.5,125.5,132.5,-137.5,132.5,312.5,,,,SBD,Wraps,F,Masters 45-49,Yes
1,Katherine Hilton,,CA,60,57.9,,66,45,50,52.5,52.5,37.5,-40,-40,37.5,82.5,87.5,92.5,92.5,182.5,,,,SBD,Wraps,F,Masters 65-69,Yes
1,Michelle Madruga,,CA,75,73,,46,-122.5,122.5,130,130,80,85,-87.5,85,167.5,172,-175,172,387,,,,SBD,Wraps,F,Masters 45-49,Yes
1,Charlie Cheryl Ritchie,,OR,82.5,81.6,,50,-147.5,155.5,162.5,162.5,112.5,120.5,-122.5,120.5,167.5,180,187.5,187.5,470.5,,,190,SBD,Wraps,F,Masters 50-54,Yes
1,Kimberly Brown,,CA,82.5,81.5,,55,120,130,-137.5,130,85,91,95,95,160,172.5,-181.5,172.5,397.5,,,,SBD,Wraps,F,Masters 55-59,Yes
1,Franchesca Vermillion,,OR,90,87.4,,41,120,127.5,-137.5,127.5,87.5,92.5,-95,92.5,157.5,168,170,170,390,,,,SBD,Wraps,F,Masters 40-44,Yes
1,Mark Anzalone,,HI,60,60,,22,140,147.5,155,155,107.5,-110,,107.5,190,195,-205,195,457.5,,,,SBD,Wraps,M,Juniors 20-23,Yes
1,Ben Reigle,,ID,67.5,60.3,,19,125,-130,130,130,90,-95,-95,90,130,150,-165,150,370,,,,SBD,Wraps,M,Juniors 15-19,Yes
1,Tagan Winsor,,UT,75,74.2,,18,187.5,200,210,210,-110,125,127.5,127.5,180,197.5,207.5,207.5,545,,,,SBD,Wraps,M,Juniors 15-19,Yes
2,Julver Morales,,CA,75,70.4,,19,180,190,-197.5,190,115,117.5,122.5,122.5,205,217.5,-227.5,217.5,530,,,,SBD,Wraps,M,Juniors 15-19,Yes
1,Lucas Pagano,,MO,90,89.4,,21,195,217.5,222.5,222.5,137.5,147.5,-150,147.5,227.5,245,-250,245,615,,,,SBD,Wraps,M,Juniors 20-23,Yes
1,Louis-Patrick Mua,,NC,125,123.2,,23,-325,325,-345,325,180,190,195,195,345,365,385,385,905,,,,SBD,Wraps,M,Juniors 20-23,Yes
1,Justin Wyms,,MO,140+,220.3,,23,-250,277.5,295,295,-185,197.5,210,210,260,272.5,290,290,795,,,,SBD,Wraps,M,Juniors 20-23,Yes
1,Mark Anzalone,,HI,60,60,,22,140,147.5,155,155,107.5,-110,,107.5,190,195,-205,195,457.5,,,,SBD,Wraps,M,Open,Yes
1,Joel Vazquez,,CA,67.5,66.5,,30,147.5,162.5,172.5,172.5,117.5,130,-140.5,130,180,200,210,210,512.5,,,,SBD,Wraps,M,Open,Yes
DQ,Brady West,,AR,67.5,64.9,,25,-190,-197.5,-197.5,,102.5,-105,105,105,210,222.5,237.5,237.5,,,,,SBD,Wraps,M,Open,Yes
1,Eddie Saiz,,NM,75,74,,28,-215,222.5,230,230,150,-157.5,-157.5,150,250,262.5,272.5,272.5,652.5,,,,SBD,Wraps,M,Open,Yes
2,Meng Vang,,CA,75,73.1,,26,235,-240,240,240,145,-162.5,-162.5,145,-240,240,-242.5,240,625,,,,SBD,Wraps,M,Open,Yes
3,Jose Bueno,,CA,75,74,,31,157.5,180,192.5,192.5,160,172.5,-177.5,172.5,182.5,202.5,-215,202.5,567.5,,,,SBD,Wraps,M,Open,Yes
1,Jesse Coffey #1,,NC,82.5,81.6,,36,237.5,250,262.5,262.5,147.5,157.5,-160,157.5,272.5,288.5,-295,288.5,708.5,,,,SBD,Wraps,M,Open,Yes
1,Luke Van Ginkel,,CA,90,90,,25,250,-262.5,262.5,262.5,172.5,-183,-183,172.5,202.5,227.5,247.5,247.5,682.5,,,,SBD,Wraps,M,Open,Yes
2,Phil Cannizzaro,,CA,90,89.1,,52,-207.5,-207.5,207.5,207.5,152.5,-157.5,-157.5,152.5,215,-225,225,225,585,,,,SBD,Wraps,M,Open,Yes
1,Thomas Moschner,,FL,100,97.4,,24,272.5,287.5,292.5,292.5,170,182.5,-187.5,182.5,277.5,300,320,320,795,,,,SBD,Wraps,M,Open,Yes
2,Chase Ruhmann,,TX,100,98.2,,28,250,260,265,265,157.5,162.5,165,165,255,267.5,275,275,705,,,,SBD,Wraps,M,Open,Yes
3,Michael Caputo #1,,FL,100,98.6,,34,240,257.5,265,265,162.5,177.5,-185,177.5,242.5,260,-272.5,260,702.5,,,,SBD,Wraps,M,Open,Yes
4,Caleb White,,TX,100,96.6,,27,250,260,267.5,267.5,145,150,155,155,250,265,272.5,272.5,695,,,,SBD,Wraps,M,Open,Yes
5,Paul Downs,,OR,100,96.7,,48,185,197.5,215,215,115,127.5,137.5,137.5,195,215,-227.5,215,567.5,,,,SBD,Wraps,M,Open,Yes
DQ,Jakob Bowers,,CO,100,95.8,,25,-245,-245,-245,,,,,,,,,,,,,,SBD,Wraps,M,Open,Yes
1,Norman Black Jr,,WY,110,103.8,,25,230,245,260,260,-170,170,190,190,232.5,265,277.5,277.5,727.5,,,,SBD,Wraps,M,Open,Yes
1,Louis-Patrick Mua,,NC,125,123.2,,23,-325,325,-345,325,180,190,195,195,345,365,385,385,905,,,,SBD,Wraps,M,Open,Yes
2,Boris Terry,,CA,125,119.4,,37,310,335,340,340,200,212.5,-217.5,212.5,320,-345,-345,320,872.5,,,,SBD,Wraps,M,Open,Yes
1,Kody Medina,,KS,140,135,,28,312.5,-340,-340,312.5,195,-205,-205,195,330,342.5,-350,342.5,850,,,,SBD,Wraps,M,Open,Yes
2,Dennis Alegre,,CA,140,126.9,,56,220,237.5,245,245,140,147.5,155,155,265,291.5,-295,291.5,691.5,,,,SBD,Wraps,M,Open,Yes
DQ,Jon Wong #1,,CO,140,138.2,,39,-310,-310,-310,,,,,,,,,,,,,,SBD,Wraps,M,Open,Yes
1,Cody Chapel,,ND,140+,156.6,,33,-312.5,312.5,320,320,225,-233,-233,225,320,333,342.5,342.5,887.5,,,,SBD,Wraps,M,Open,Yes
2,Justin Wyms,,MO,140+,220.3,,23,-250,277.5,295,295,-185,197.5,210,210,260,272.5,290,290,795,,,,SBD,Wraps,M,Open,Yes
DQ,Mau Hafoka,,CA,140+,161.2,,29,320,332.5,-345,332.5,190,200,-205,200,-325,-325,-332.5,,,,,,SBD,Wraps,M,Open,Yes
1,Bill Larkham,Canada,AB,82.5,80.4,,62,147.5,155,-165.5,155,95,-100,100,100,167.5,180,190,190,445,,,192.5,SBD,Wraps,M,Masters 60-64,Yes
1,John Killin,,CA,82.5,81.5,,72,140,152.5,157.5,157.5,75,80,-82.5,80,175,190,195,195,432.5,,,,SBD,Wraps,M,Masters 70-74,Yes
1,Phil Cannizzaro,,CA,90,89.1,,52,-207.5,-207.5,207.5,207.5,152.5,-157.5,-157.5,152.5,215,-225,225,225,585,,,,SBD,Wraps,M,Masters 50-54,Yes
2,Vance Wallace,,MO,90,89.8,,50,165,175,182.5,182.5,157.5,-166,-166,157.5,165,175,182.5,182.5,522.5,,,,SBD,Wraps,M,Masters 50-54,Yes
1,John Hare,,TX,90,88.4,,60,197.5,220,-235,220,147.5,165,-170.5,165,225,240,250,250,635,,,,SBD,Wraps,M,Masters 60-64,Yes
1,Paul Fulenwider,,NY,90,87.8,,65,-102.5,-102.5,102.5,102.5,-82.5,82.5,90,90,160,170,-180,170,362.5,,,,SBD,Wraps,M,Masters 65-69,Yes
1,Kevin Canant,,CA,100,92.8,,49,190,-210,210,210,165,175,-182.5,175,185,205,220,220,605,,,,SBD,Wraps,M,Masters 45-49,Yes
2,Paul Downs,,OR,100,96.7,,48,185,197.5,215,215,115,127.5,137.5,137.5,195,215,-227.5,215,567.5,,,,SBD,Wraps,M,Masters 45-49,Yes
1,Derek Sherlock,,CO,100,99.4,,59,150,170,185,185,105,112.5,-120,112.5,-210,220,-232.5,220,517.5,,,,SBD,Wraps,M,Masters 55-59,Yes
1,John Mazmanian,,CA,100,98.4,,63,175,-182.5,-182.5,175,115,-120,-120,115,220,-235,-235,220,510,,,,SBD,Wraps,M,Masters 60-64,Yes
1,Rudy Kadlub,,OR,100,98,,72,182.5,195.5,205,205,127.5,137.5,140.5,140.5,215,228,232.5,232.5,578,,142.5,,SBD,Wraps,M,Masters 70-74,Yes
1,Karl Davenport,,NC,125,118.9,,56,145,160,175,175,110,117.5,122.5,122.5,175,192.5,-207.5,192.5,490,,,,SBD,Wraps,M,Masters 55-59,Yes
1,Peter Pauline,,GA,125,111,,66,125,-150,150,150,105,115,117.5,117.5,220,-235,-235,220,487.5,,,,SBD,Wraps,M,Masters 65-69,Yes
1,Dennis Alegre,,CA,140,126.9,,56,220,237.5,245,245,140,147.5,155,155,265,291.5,-295,291.5,691.5,,,,SBD,Wraps,M,Masters 55-59,Yes
1,Michael Hughes,,CA,140+,148.8,,61,155,167.5,175,175,152.5,-162.5,162.5,162.5,190,202.5,212.5,212.5,550,,,217.5,SBD,Wraps,M,Masters 60-64,Yes
1,Stephanie Stickley,,CA,48,46.6,,54,112.5,122.5,128,128,57.5,-62.5,62.5,62.5,117.5,125,-133,125,315.5,132.5,68,,SBD,Single-ply,F,Open,Yes
1,Kristina Kanemoto,,CA,60,58.2,,29,-157.5,157.5,-162.5,157.5,82.5,87.5,-90,87.5,-162.5,172.5,182.5,182.5,427.5,,,,SBD,Single-ply,F,Open,Yes
2,Heena Patel,,CO,60,59.2,,49,147.5,155,-160,155,95,-101,-101,95,-165,-165,165,165,415,,,,SBD,Single-ply,F,Open,Yes
3,Cayte Bona,,AZ,60,59,,30,137.5,-145,147.5,147.5,100.5,-102.5,102.5,102.5,142.5,152.5,-157.5,152.5,402.5,,,,SBD,Single-ply,F,Open,Yes
4,Linda Kelly,,AZ,60,59.9,,56,142.5,-147.5,-152.5,142.5,-85,85,-87.5,85,127.5,-135,,127.5,355,,,,SBD,Single-ply,F,Open,Yes
5,Bobbi Walden,,KS,60,58.8,,30,122.5,127.5,132.5,132.5,70,-75,-75,70,135,145,-152.5,145,347.5,,,,SBD,Single-ply,F,Open,Yes
DQ,Malinda Barnes,,AZ,90,84,,42,185,192.5,-202.5,192.5,-127.5,-132.5,-132.5,,,,,,,,,,SBD,Single-ply,F,Open,Yes
1,Stephanie Stickley,,CA,48,46.6,,54,112.5,122.5,128,128,57.5,-62.5,62.5,62.5,117.5,125,-133,125,315.5,132.5,68,,SBD,Single-ply,F,Masters 50-54,Yes
1,Heena Patel,,CO,60,59.2,,49,147.5,155,-160,155,95,-101,-101,95,-165,-165,165,165,415,,,,SBD,Single-ply,F,Masters 45-49,Yes
1,Linda Kelly,,AZ,60,59.9,,56,142.5,-147.5,-152.5,142.5,-85,85,-87.5,85,127.5,-135,,127.5,355,,,,SBD,Single-ply,F,Masters 55-59,Yes
1,Betsy Spann,,CA,60,58.5,,64,80,87.5,93,93,52.5,57.5,-60,57.5,115,122.5,130,130,280.5,,,135,SBD,Single-ply,F,Masters 60-64,Yes
DQ,Malinda Barnes,,AZ,90,84,,42,185,192.5,-202.5,192.5,-127.5,-132.5,-132.5,,,,,,,,,,SBD,Single-ply,F,Masters 40-44,Yes
1,Jarred Benitez,,CA,60,59.5,,35,205,225,-235,225,150,-162.5,-162.5,150,210,227.5,-235,227.5,602.5,,,,SBD,Single-ply,M,Open,Yes
1,Robert Perez,,TX,75,74.4,,26,195,210,-217.5,210,162.5,-170,-170,162.5,200,222.5,230,230,602.5,,,,SBD,Single-ply,M,Open,Yes
1,Keith Kanemoto,,CA,82.5,80.3,,62,252.5,-262.5,-275,252.5,125,160,-170,160,235,245,-250,245,657.5,,,,SBD,Single-ply,M,Open,Yes
1,Clint McCord,,AZ,110,103.4,,31,295,305,-310,305,220,227.5,-232.5,227.5,272.5,293,-300,293,825.5,,,,SBD,Single-ply,M,Open,Yes
1,Joshua Lynch,,CO,125,120.4,,29,285,295,300,300,-220,225,-238,225,265,275,285,285,810,,,,SBD,Single-ply,M,Open,Yes
DQ,Santiago Vasquez,,AZ,140,137.8,,25,-295,-295,-295,,,,,,,,,,,,,,SBD,Single-ply,M,Open,Yes
1,Dave Cooper,,AZ,82.5,80.3,,46,175,200,-207.5,200,172.5,-187.5,-187.5,172.5,220,-240,-240,220,592.5,,,,SBD,Single-ply,M,Masters 45-49,Yes
1,Jose Hernandez #1,,CA,82.5,81.4,,54,-192.5,192.5,205,205,115,122.5,127.5,127.5,190,-205,205,205,537.5,,,,SBD,Single-ply,M,Masters 50-54,Yes
1,Keith Kanemoto,,CA,82.5,80.3,,62,252.5,-262.5,-275,252.5,125,160,-170,160,235,245,-250,245,657.5,,,,SBD,Single-ply,M,Masters 60-64,Yes
1,Joe Walden,,KS,82.5,80,,65,142.5,157.5,165,165,85,97.5,107.5,107.5,162.5,172.5,182.5,182.5,455,,,188,SBD,Single-ply,M,Masters 65-69,Yes
1,George Pessell,,CA,100,96.2,,62,200,210,-222.5,210,145,150,155,155,225,-242.5,-242.5,225,590,,,,SBD,Single-ply,M,Masters 60-64,Yes
1,Peter Murphy,,CA,100,97.6,,70,140,165,,165,85,100,105,105,185,,,185,455,,,,SBD,Single-ply,M,Masters 70-74,Yes
1,John Thomas,,OR,125,121.8,,56,220,230,,230,155,-160,,155,235,250,260,260,645,,,,SBD,Single-ply,M,Masters 55-59,Yes
1,William Wenk,,NC,125,110.8,,60,200,-210,,200,125,130,135,135,-200,200,-207.5,200,535,,,,SBD,Single-ply,M,Masters 60-64,Yes
1,Briana Negron,,FL,52,51.9,,22,,,,,65,70,72.5,72.5,,,,,72.5,,,,B,Raw,F,Juniors 20-23,Yes
1,Haley Devers,,PA,56,54,,20,,,,,-102.5,-105,105,105,,,,,105,,107.5,,B,Raw,F,Juniors 20-23,Yes
2,Megan Prieto,,CA,56,54.9,,22,,,,,52.5,57.5,-62.5,57.5,,,,,57.5,,,,B,Raw,F,Juniors 20-23,Yes
1,Miah Salinas,,CA,60,59.3,,19,,,,,72.5,75,-78,75,,,,,75,,,,B,Raw,F,Juniors 15-19,Yes
1,Gabriella Hoyt,,FL,60,59.4,,22,,,,,62.5,70,75,75,,,,,75,,,,B,Raw,F,Juniors 20-23,Yes
1,Havvy Ehrich,,OR,67.5,64.8,,19,,,,,102.5,107.5,112.5,112.5,,,,,112.5,,,,B,Raw,F,Juniors 15-19,Yes
1,Bailey Stettmeier,,AR,67.5,65.7,,23,,,,,75,85,-87.5,85,,,,,85,,,,B,Raw,F,Juniors 20-23,Yes
1,Sierra Marshman,,OR,82.5,80.7,,23,,,,,90,-97.5,-97.5,90,,,,,90,,,,B,Raw,F,Juniors 20-23,Yes
1,Breanna Armenta,,CA,52,51.4,,30,,,,,-72.5,75,77.5,77.5,,,,,77.5,,,,B,Raw,F,Open,Yes
2,Briana Negron,,FL,52,51.9,,22,,,,,65,70,72.5,72.5,,,,,72.5,,,,B,Raw,F,Open,Yes
1,Haley Devers,,PA,56,54,,20,,,,,-102.5,-105,105,105,,,,,105,,107.5,,B,Raw,F,Open,Yes
2,Michelle Green,,CA,56,54.4,,28,,,,,60,65,-67.5,65,,,,,65,,,,B,Raw,F,Open,Yes
1,Dani Edgel,,CO,60,59.3,,34,,,,,-92.5,92.5,-96,92.5,,,,,92.5,,,,B,Raw,F,Open,Yes
2,Daniella Means,,CA,60,58.8,,31,,,,,80,85,87.5,87.5,,,,,87.5,,,,B,Raw,F,Open,Yes
3,Lori Dilling,,OR,60,56.8,,41,,,,,80,84,-90,84,,,,,84,,,,B,Raw,F,Open,Yes
4,Gabriella Hoyt,,FL,60,59.4,,22,,,,,62.5,70,75,75,,,,,75,,,,B,Raw,F,Open,Yes
5,Elle Bandy,,IL,60,58.9,,34,,,,,70,-75,-75,70,,,,,70,,,,B,Raw,F,Open,Yes
1,Havvy Ehrich,,OR,67.5,64.8,,19,,,,,102.5,107.5,112.5,112.5,,,,,112.5,,,,B,Raw,F,Open,Yes
2,Jodi Hamlin,,TX,67.5,67.2,,52,,,,,80,82.5,85.5,85.5,,,,,85.5,,,,B,Raw,F,Open,Yes
3,Leslie Gurr,Canada,AB,67.5,61.1,,53,,,,,80.5,85,-87.5,85,,,,,85,,,,B,Raw,F,Open,Yes
4,Bailey Stettmeier,,AR,67.5,65.7,,23,,,,,75,85,-87.5,85,,,,,85,,,,B,Raw,F,Open,Yes
1,Tiffany Savage,,CA,75,74.8,,29,,,,,112.5,117.5,-122.5,117.5,,,,,117.5,,,,B,Raw,F,Open,Yes
2,Kristine Kobza,,AZ,75,72.4,,54,,,,,-92.5,92.5,101,101,,,,,101,,,,B,Raw,F,Open,Yes
3,Michelle Madruga,,CA,75,73,,46,,,,,80,85,-87.5,85,,,,,85,,,,B,Raw,F,Open,Yes
4,Samantha Day,,CA,75,74.1,,42,,,,,82.5,-86,-86,82.5,,,,,82.5,,,,B,Raw,F,Open,Yes
5,Kaitlin Haddad,,NJ,75,73.3,,33,,,,,80,-85,-85,80,,,,,80,,,,B,Raw,F,Open,Yes
1,Charlie Cheryl Ritchie,,OR,82.5,81.6,,50,,,,,112.5,120.5,-122.5,120.5,,,,,120.5,,,,B,Raw,F,Open,Yes
2,Danielle Massingill,,CO,82.5,75.4,,29,,,,,-100,100,105,105,,,,,105,,,,B,Raw,F,Open,Yes
3,Kerrie Montalvan,,SC,82.5,79.8,,39,,,,,90,95,-97.5,95,,,,,95,,,,B,Raw,F,Open,Yes
4,Kimberly Brown,,CA,82.5,81.5,,55,,,,,85,91,95,95,,,,,95,,,,B,Raw,F,Open,Yes
5,Rosalind Sutch,,PA,82.5,79.9,,41,,,,,90,-92.5,-92.5,90,,,,,90,,,,B,Raw,F,Open,Yes
6,Sierra Marshman,,OR,82.5,80.7,,23,,,,,90,-97.5,-97.5,90,,,,,90,,,,B,Raw,F,Open,Yes
1,Franchesca Vermillion,,OR,90,87.4,,41,,,,,87.5,92.5,-95,92.5,,,,,92.5,,,,B,Raw,F,Open,Yes
2,Christina Ullman,,OH,90,87.5,,50,,,,,75,77.5,80,80,,,,,80,,,,B,Raw,F,Open,Yes
1,Lori Dilling,,OR,60,56.8,,41,,,,,80,84,-90,84,,,,,84,,,,B,Raw,F,Masters 40-44,Yes
1,Jodi Hamlin,,TX,67.5,67.2,,52,,,,,80,82.5,85.5,85.5,,,,,85.5,,,,B,Raw,F,Masters 50-54,Yes
2,Leslie Gurr,Canada,AB,67.5,61.1,,53,,,,,80.5,85,-87.5,85,,,,,85,,,,B,Raw,F,Masters 50-54,Yes
3,Shannon Paulson,,CA,67.5,66,,51,,,,,70,75,-77.5,75,,,,,75,,,,B,Raw,F,Masters 50-54,Yes
1,Deborah Hasten,,MO,67.5,64.9,,65,,,,,53,55,-56.5,55,,,,,55,,,,B,Raw,F,Masters 65-69,Yes
1,Marybeth Chow,,OR,67.5,65.1,,71,,,,,37.5,-40,-42.5,37.5,,,,,37.5,,,,B,Raw,F,Masters 70-74,Yes
1,Samantha Day,,CA,75,74.1,,42,,,,,82.5,-86,-86,82.5,,,,,82.5,,,,B,Raw,F,Masters 40-44,Yes
1,Michelle Madruga,,CA,75,73,,46,,,,,80,85,-87.5,85,,,,,85,,,,B,Raw,F,Masters 45-49,Yes
1,Kristine Kobza,,AZ,75,72.4,,54,,,,,-92.5,92.5,101,101,,,,,101,,,,B,Raw,F,Masters 50-54,Yes
1,Brenda Helmer,Canada,AB,75,74.4,,62,,,,,50,-52.5,-52.5,50,,,,,50,,,,B,Raw,F,Masters 60-64,Yes
1,Rosalind Sutch,,PA,82.5,79.9,,41,,,,,90,-92.5,-92.5,90,,,,,90,,,,B,Raw,F,Masters 40-44,Yes
1,Charlie Cheryl Ritchie,,OR,82.5,81.6,,50,,,,,112.5,120.5,-122.5,120.5,,,,,120.5,,,,B,Raw,F,Masters 50-54,Yes
1,Kimberly Brown,,CA,82.5,81.5,,55,,,,,85,91,95,95,,,,,95,,,,B,Raw,F,Masters 55-59,Yes
1,Franchesca Vermillion,,OR,90,87.4,,41,,,,,87.5,92.5,-95,92.5,,,,,92.5,,,,B,Raw,F,Masters 40-44,Yes
1,Megan Wiesner,,CA,90,87.6,,46,,,,,65,67.5,-70,67.5,,,,,67.5,,,,B,Raw,F,Masters 45-49,Yes
1,Christina Ullman,,OH,90,87.5,,50,,,,,75,77.5,80,80,,,,,80,,,,B,Raw,F,Masters 50-54,Yes
1,Lynn Bassett,,UT,90+,111.6,,56,,,,,92.5,97.5,-100,97.5,,,,,97.5,,,,B,Raw,F,Masters 55-59,Yes
1,Jeremy Lapham,,CA,56,54.2,,17,,,,,-100,100,-102.5,100,,,,,100,,,,B,Raw,M,Juniors 15-19,Yes
1,Jesus Ramirez,,CA,67.5,66.6,,21,,,,,105,-115,115,115,,,,,115,,,,B,Raw,M,Juniors 20-23,Yes
1,Gabriel Youngquist,,TX,75,72.7,,23,,,,,115,117.5,122.5,122.5,,,,,122.5,,,,B,Raw,M,Juniors 20-23,Yes
1,Zachary Barthlow,,CA,90,89.3,,19,,,,,165,172.5,-182.5,172.5,,,,,172.5,,,,B,Raw,M,Juniors 15-19,Yes
1,Tracer Spurlock,,CA,90,89.2,,23,,,,,-180,187.5,193,193,,,,,193,,,,B,Raw,M,Juniors 20-23,Yes
2,Lucas Pagano,,MO,90,89.4,,21,,,,,137.5,147.5,-150,147.5,,,,,147.5,,,,B,Raw,M,Juniors 20-23,Yes
1,Justin Wyms,,MO,140+,220.3,,23,,,,,-185,197.5,210,210,,,,,210,,,,B,Raw,M,Juniors 20-23,Yes
1,Khemarintr Suwanchote,,WA,60,59.3,,28,,,,,112.5,-120,120,120,,,,,120,,,,B,Raw,M,Open,Yes
1,Rollan Romeo,,CA,67.5,66.8,,38,,,,,162.5,170,172.5,172.5,,,,,172.5,,,,B,Raw,M,Open,Yes
2,Matthew Chapman #1,,HI,67.5,66.7,,53,,,,,115,120,122,122,,,,,122,,123,,B,Raw,M,Open,Yes
3,John Wehrli,,CA,67.5,65.2,,57,,,,,100,-102.5,-102.5,100,,,,,100,,,,B,Raw,M,Open,Yes
1,Jose Bueno,,CA,75,74,,31,,,,,160,172.5,-177.5,172.5,,,,,172.5,,,,B,Raw,M,Open,Yes
2,Joe Hays,,MN,75,73,,61,,,,,100,107.5,-116,107.5,,,,,107.5,,,,B,Raw,M,Open,Yes
DQ,Christopher Vashi,,OH,75,73.5,,45,,,,,,,,,,,,,,,,,B,Raw,M,Open,Yes
1,Johnathon Carlisle,,TX,82.5,81,,27,,,,,192.5,-197.5,-197.5,192.5,,,,,192.5,,,,B,Raw,M,Open,Yes
2,David Johnson,,CA,82.5,81.8,,37,,,,,182.5,192.5,-195,192.5,,,,,192.5,,,,B,Raw,M,Open,Yes
1,Angelo Garcia #1,,CA,90,88.9,,28,,,,,172.5,182.5,187.5,187.5,,,,,187.5,,,,B,Raw,M,Open,Yes
1,Brandon Heflin,,CO,100,96.6,,27,,,,,165,182.5,-185,182.5,,,,,182.5,,,,B,Raw,M,Open,Yes
2,Thomas Moschner,,FL,100,97.4,,24,,,,,170,182.5,-187.5,182.5,,,,,182.5,,,,B,Raw,M,Open,Yes
3,Gerren Short,,VA,100,97.6,,45,,,,,167.5,177.5,-182.5,177.5,,,,,177.5,,,,B,Raw,M,Open,Yes
4,Randy Elbert,,MD,100,94.8,,51,,,,,142.5,-155,155,155,,,,,155,,158,,B,Raw,M,Open,Yes
G,John Domingo,,NV,100,90.6,,25,,,,,125,142.5,-152.5,142.5,,,,,142.5,,,,B,Raw,M,Open,Yes
1,James Alston #1,,CA,110,108.8,,35,,,,,197.5,210,-217.5,210,,,,,210,,,,B,Raw,M,Open,Yes
2,Jonathan Adams,,CA,110,110,,36,,,,,165,192.5,-197.5,192.5,,,,,192.5,,,,B,Raw,M,Open,Yes
3,Marquis Ware,,CA,110,109.9,,30,,,,,175,185,-200,185,,,,,185,,,,B,Raw,M,Open,Yes
4,Michael Gilfix,,TX,110,106,,41,,,,,170,175,-180,175,,,,,175,,,,B,Raw,M,Open,Yes
1,Alejandro Wickham,,PA,125,123.3,,36,,,,,192.5,202.5,205,205,,,,,205,,,,B,Raw,M,Open,Yes
1,Bobby Martinez,,CA,140,127,,37,,,,,-207.5,-207.5,207.5,207.5,,,,,207.5,,,,B,Raw,M,Open,Yes
2,Rick Geller,,CO,140,126.2,,61,,,,,192.5,-202.5,202.5,202.5,,,,,202.5,,205,,B,Raw,M,Open,Yes
3,Matt Slate,,NV,140,134.7,,40,,,,,197.5,200,-205,200,,,,,200,,,,B,Raw,M,Open,Yes
4,Christopher Orndorff,,NV,140,133.6,,45,,,,,182.5,190,-195,190,,,,,190,,,,B,Raw,M,Open,Yes
DQ,Ronnie Castro,,CA,140,139,,39,,,,,-165,-165,-165,,,,,,,,,,B,Raw,M,Open,Yes
1,Cody Chapel,,ND,140+,156.6,,33,,,,,225,-233,-233,225,,,,,225,,,,B,Raw,M,Open,Yes
2,Justin Wyms,,MO,140+,220.3,,23,,,,,-185,197.5,210,210,,,,,210,,,,B,Raw,M,Open,Yes
1,Jay Hadden,,CA,60,59.2,,49,,,,,95,-102.5,-102.5,95,,,,,95,,,,B,Raw,M,Masters 45-49,Yes
1,Aron Freeman,,WI,67.5,66.4,,45,,,,,107.5,115,117.5,117.5,,,,,117.5,,,,B,Raw,M,Masters 45-49,Yes
1,Matthew Chapman #1,,HI,67.5,66.7,,53,,,,,115,120,122,122,,,,,122,,123,,B,Raw,M,Masters 50-54,Yes
1,John Wehrli,,CA,67.5,65.2,,57,,,,,100,-102.5,-102.5,100,,,,,100,,,,B,Raw,M,Masters 55-59,Yes
1,Gordon Santee,,NV,67.5,60.1,,75,,,,,60,62.5,65,65,,,,,65,,67.5,,B,Raw,M,Masters 75-79,Yes
2,Louis Magiera,,RI,67.5,65.5,,76,,,,,52.5,60,-67.5,60,,,,,60,,,,B,Raw,M,Masters 75-79,Yes
DQ,Christopher Vashi,,OH,75,73.5,,45,,,,,,,,,,,,,,,,,B,Raw,M,Masters 45-49,Yes
1,Kevin Doran,,CA,75,73.5,,50,,,,,140,147.5,152.5,152.5,,,,,152.5,,,,B,Raw,M,Masters 50-54,Yes
1,Joe Hays,,MN,75,73,,61,,,,,100,107.5,-116,107.5,,,,,107.5,,,,B,Raw,M,Masters 60-64,Yes
1,Alfonso Martinez,,CO,75,73.8,,66,,,,,82.5,-87.5,-87.5,82.5,,,,,82.5,,,,B,Raw,M,Masters 65-69,Yes
1,Amador Galvez,,CA,75,74,,70,,,,,100,-103,103,103,,,,,103,,,,B,Raw,M,Masters 70-74,Yes
1,Steve Vennemann,,MN,82.5,82.3,,50,,,,,152.5,-157.5,157.5,157.5,,,,,157.5,,,,B,Raw,M,Masters 50-54,Yes
2,Don Burris,,CO,82.5,75.7,,52,,,,,112.5,117.5,120,120,,,,,120,,,,B,Raw,M,Masters 50-54,Yes
1,Tom Newell,,NM,82.5,80.3,,58,,,,,117.5,122.5,125,125,,,,,125,,,,B,Raw,M,Masters 55-59,Yes
2,Greg Eyerly,,OR,82.5,81.8,,56,,,,,112.5,117.5,122.5,122.5,,,,,122.5,,,,B,Raw,M,Masters 55-59,Yes
1,Tom Dean,,VA,82.5,80.1,,60,,,,,-140,142.5,-146,142.5,,,,,142.5,,,,B,Raw,M,Masters 60-64,Yes
2,Mark Swinton,,CA,82.5,81.2,,60,,,,,127.5,132.5,-134,132.5,,,,,132.5,,,,B,Raw,M,Masters 60-64,Yes
1,Edward Regua,,NM,82.5,80.7,,69,,,,,117.5,122.5,-127.5,122.5,,,,,122.5,,,,B,Raw,M,Masters 65-69,Yes
1,David Robinson,,CO,82.5,76.6,,80,,,,,75,85,-87.5,85,,,,,85,,,,B,Raw,M,Masters 80+,Yes
1,Jensen Monterrey,,CA,90,89.5,,48,,,,,125,137.5,-142.5,137.5,,,,,137.5,,,,B,Raw,M,Masters 45-49,Yes
1,Vance Wallace,,MO,90,89.8,,50,,,,,157.5,-166,-166,157.5,,,,,157.5,,,,B,Raw,M,Masters 50-54,Yes
2,Jason Roberts #2,,HI,90,88.6,,52,,,,,130,140,-142.5,140,,,,,140,,,,B,Raw,M,Masters 50-54,Yes
1,Bryan Hartman,,CA,90,89.1,,55,,,,,135,-137.5,-137.5,135,,,,,135,,,,B,Raw,M,Masters 55-59,Yes
1,John Hare,,TX,90,88.4,,60,,,,,147.5,165,-170.5,165,,,,,165,,,,B,Raw,M,Masters 60-64,Yes
2,Scott Sciaretta #1,,MT,90,89,,60,,,,,127.5,-135.5,-135.5,127.5,,,,,127.5,,,,B,Raw,M,Masters 60-64,Yes
1,Al Galvez,,CA,90,88,,65,,,,,130,140,-148,140,,,,,140,,,,B,Raw,M,Masters 65-69,Yes
1,Howard Mangan,,KY,90,87.4,,80,,,,,84,86,88,88,,,,,88,,,,B,Raw,M,Masters 80+,Yes
2,Terence Plotsky,,CA,90,86.5,,80,,,,,-75,75,-78,75,,,,,75,,,,B,Raw,M,Masters 80+,Yes
1,Dain Pankratz,,CA,100,98.4,,43,,,,,182.5,-190.5,-190.5,182.5,,,,,182.5,,,,B,Raw,M,Masters 40-44,Yes
1,Gerren Short,,VA,100,97.6,,45,,,,,167.5,177.5,-182.5,177.5,,,,,177.5,,,,B,Raw,M,Masters 45-49,Yes
1,Randy Elbert,,MD,100,94.8,,51,,,,,142.5,-155,155,155,,,,,155,,158,,B,Raw,M,Masters 50-54,Yes
1,Derek Sherlock,,CO,100,99.4,,59,,,,,105,112.5,-120,112.5,,,,,112.5,,,,B,Raw,M,Masters 55-59,Yes
1,Kevin Palla,,CA,100,97.7,,62,,,,,100,107.5,112.5,112.5,,,,,112.5,,,,B,Raw,M,Masters 60-64,Yes
1,Michael Gilfix,,TX,110,106,,41,,,,,170,175,-180,175,,,,,175,,,,B,Raw,M,Masters 40-44,Yes
DQ,Anthony Smith #2,,NM,110,106.5,,56,,,,,-160,-170,-170,,,,,,,,,,B,Raw,M,Masters 55-59,Yes
1,Matt Newton,,AK,110,106.1,,61,,,,,165,185,-195,185,,,,,185,,,,B,Raw,M,Masters 60-64,Yes
2,Darvis Simms,,NC,110,103.8,,62,,,,,-132.5,137.5,140,140,,,,,140,,,,B,Raw,M,Masters 60-64,Yes
1,Joey Greenwood,,CA,110,107,,67,,,,,142.5,147.5,-152.5,147.5,,,,,147.5,,,,B,Raw,M,Masters 65-69,Yes
1,Raymond Halling,,WA,110,102.1,,84,,,,,75,80,82.5,82.5,,,,,82.5,,,,B,Raw,M,Masters 80+,Yes
DQ,Andre Kneubuhler,,CA,125,118.6,,52,,,,,-182.5,-192.5,-192.5,,,,,,,,,,B,Raw,M,Masters 50-54,Yes
1,Karl Davenport,,NC,125,118.9,,56,,,,,110,117.5,122.5,122.5,,,,,122.5,,,,B,Raw,M,Masters 55-59,Yes
1,Peter Pauline,,GA,125,111,,66,,,,,105,115,117.5,117.5,,,,,117.5,,,,B,Raw,M,Masters 65-69,Yes
1,Denny Faler,,CA,125,114.2,,81,,,,,95,100,105,105,,,,,105,,,,B,Raw,M,Masters 80+,Yes
1,Matt Slate,,NV,140,134.7,,40,,,,,197.5,200,-205,200,,,,,200,,,,B,Raw,M,Masters 40-44,Yes
1,Christopher Orndorff,,NV,140,133.6,,45,,,,,182.5,190,-195,190,,,,,190,,,,B,Raw,M,Masters 45-49,Yes
1,Chris Dodson,,CA,140,128.9,,56,,,,,160,172.5,-177.5,172.5,,,,,172.5,,,,B,Raw,M,Masters 55-59,Yes
1,Rick Geller,,CO,140,126.2,,61,,,,,192.5,-202.5,202.5,202.5,,,,,202.5,,205,,B,Raw,M,Masters 60-64,Yes
2,Rudolf Schaap,,CA,140,125.9,,61,,,,,165,-175.5,-177.5,165,,,,,165,,,,B,Raw,M,Masters 60-64,Yes
1,Mike Shae,,MT,140+,161,,51,,,,,145,155,-165,155,,,,,155,,,,B,Raw,M,Masters 50-54,Yes
2,Todd Dawes,,CO,140+,141,,53,,,,,142.5,150,-152.5,150,,,,,150,,,,B,Raw,M,Masters 50-54,Yes
1,Michael Hughes,,CA,140+,148.8,,61,,,,,152.5,-162.5,162.5,162.5,,,,,162.5,,,,B,Raw,M,Masters 60-64,Yes
1,Matthew Fragner,,CA,140+,140.8,,67,,,,,117.5,130,-137.5,130,,,,,130,,,,B,Raw,M,Masters 65-69,Yes
1,Heena Patel,,CO,60,59.2,,49,,,,,95,-101,-101,95,,,,,95,,,,B,Single-ply,F,Open,Yes
2,Linda Kelly,,AZ,60,59.9,,56,,,,,-85,85,-87.5,85,,,,,85,,,,B,Single-ply,F,Open,Yes
1,Heena Patel,,CO,60,59.2,,49,,,,,95,-101,-101,95,,,,,95,,,,B,Single-ply,F,Masters 45-49,Yes
1,Linda Kelly,,AZ,60,59.9,,56,,,,,-85,85,-87.5,85,,,,,85,,,,B,Single-ply,F,Masters 55-59,Yes
1,Betsy Spann,,CA,60,58.5,,64,,,,,52.5,57.5,-60,57.5,,,,,57.5,,,,B,Single-ply,F,Masters 60-64,Yes
1,Jarred Benitez,,CA,60,59.5,,35,,,,,150,-162.5,-162.5,150,,,,,150,,,,B,Single-ply,M,Open,Yes
1,Robert Perez,,TX,75,74.4,,26,,,,,162.5,-170,-170,162.5,,,,,162.5,,,,B,Single-ply,M,Open,Yes
1,Rick Geller,,CO,140,126.2,,61,,,,,-242.5,242.5,250,250,,,,,250,,,,B,Single-ply,M,Open,Yes
1,Thomas Tenhet,,CA,140+,212.9,,29,,,,,-240,240,-257.5,240,,,,,240,,,,B,Single-ply,M,Open,Yes
1,John Cornell,,TX,82.5,80.1,,58,,,,,132.5,-137.5,137.5,137.5,,,,,137.5,,,,B,Single-ply,M,Masters 55-59,Yes
1,Wayne Jandoc,,CA,100,98.5,,64,,,,,140,-147.5,147.5,147.5,,,,,147.5,,153,,B,Single-ply,M,Masters 60-64,Yes
2,Freddie Lomelin,,CA,100,97.4,,60,,,,,132.5,142.5,145,145,,,,,145,,,,B,Single-ply,M,Masters 60-64,Yes
1,Richard Byars,,CO,110,102.6,,59,,,,,192.5,-197.5,-197.5,192.5,,,,,192.5,,,,B,Single-ply,M,Masters 55-59,Yes
1,Howard Blackmon,,CO,110,102.2,,75,,,,,127.5,130,132.5,132.5,,,,,132.5,,,,B,Single-ply,M,Masters 75-79,Yes
1,Glenn Machado,,OR,125,117,,55,,,,,225,-232.5,-232.5,225,,,,,225,,,,B,Single-ply,M,Masters 55-59,Yes
1,Rick Geller,,CO,140,126.2,,61,,,,,-242.5,242.5,250,250,,,,,250,,,,B,Single-ply,M,Masters 60-64,Yes
DQ,Wayne Jandoc,,CA,100,98.5,,64,,,,,-157.5,-157.5,-157.5,,,,,,,,,,B,Multi-ply,M,Masters 60-64,Yes
DQ,John Covert,,DE,110,107.9,,62,,,,,-183,-183,-183,,,,,,,,,,B,Multi-ply,M,Masters 60-64,Yes
1,Briana Negron,,FL,52,51.9,,22,,,,,,,,,145,152.5,-160,152.5,152.5,,,,D,Raw,F,Juniors 20-23,Yes
1,Gabriella Hoyt,,FL,60,59.4,,22,,,,,,,,,127.5,135,-147.5,135,135,,,,D,Raw,F,Juniors 20-23,Yes
1,Havvy Ehrich,,OR,67.5,64.8,,19,,,,,,,,,140,155,,155,155,,,,D,Raw,F,Juniors 15-19,Yes
1,Bailey Stettmeier,,AR,67.5,65.7,,23,,,,,,,,,167.5,182.5,185.5,185.5,185.5,,,186.5,D,Raw,F,Juniors 20-23,Yes
1,Sierra Marshman,,OR,82.5,80.7,,23,,,,,,,,,160,-175,-175,160,160,,,,D,Raw,F,Juniors 20-23,Yes
1,Karyme Martinez,,CA,90+,98.1,,17,,,,,,,,,132.5,145,150,150,150,,,,D,Raw,F,Juniors 15-19,Yes
2,Mckenzie Haven,,ND,90+,103.4,,17,,,,,,,,,132.5,145,-157.5,145,145,,,,D,Raw,F,Juniors 15-19,Yes
1,Joanne Ho,,CA,52,51.9,,24,,,,,,,,,162.5,-170,-170,162.5,162.5,,,,D,Raw,F,Open,Yes
2,Briana Negron,,FL,52,51.9,,22,,,,,,,,,145,152.5,-160,152.5,152.5,,,,D,Raw,F,Open,Yes
1,Simone Thomas,,CA,56,54.6,,30,,,,,,,,,187.5,192.5,200,200,200,,,,D,Raw,F,Open,Yes
2,Michelle Green,,CA,56,54.4,,28,,,,,,,,,142.5,-150,-150,142.5,142.5,,,,D,Raw,F,Open,Yes
1,Lori Dilling,,OR,60,56.8,,41,,,,,,,,,145,156,-165,156,156,,,,D,Raw,F,Open,Yes
2,Jo Anne Siskidis,,NY,60,59.5,,32,,,,,,,,,145,150,-155,150,150,,,,D,Raw,F,Open,Yes
3,Elle Bandy,,IL,60,58.9,,34,,,,,,,,,145,147.5,-152.5,147.5,147.5,,,,D,Raw,F,Open,Yes
4,Gabriella Hoyt,,FL,60,59.4,,22,,,,,,,,,127.5,135,-147.5,135,135,,,,D,Raw,F,Open,Yes
1,Bailey Stettmeier,,AR,67.5,65.7,,23,,,,,,,,,167.5,182.5,185.5,185.5,185.5,,,186.5,D,Raw,F,Open,Yes
2,Sarah Meyer,,OK,67.5,67,,28,,,,,,,,,165,170,177.5,177.5,177.5,,,,D,Raw,F,Open,Yes
3,Leslie Gurr,Canada,AB,67.5,61.1,,53,,,,,,,,,165,170,175,175,175,,,,D,Raw,F,Open,Yes
4,Havvy Ehrich,,OR,67.5,64.8,,19,,,,,,,,,140,155,,155,155,,,,D,Raw,F,Open,Yes
1,Tiffany Savage,,CA,75,74.8,,29,,,,,,,,,205,-212.5,-212.5,205,205,,,,D,Raw,F,Open,Yes
2,Kristine Kobza,,AZ,75,72.4,,54,,,,,,,,,172.5,182.5,192.5,192.5,192.5,,,195,D,Raw,F,Open,Yes
3,Samantha Day,,CA,75,74.1,,42,,,,,,,,,170,177.5,185,185,185,,,,D,Raw,F,Open,Yes
4,Michelle Madruga,,CA,75,73,,46,,,,,,,,,167.5,172,-175,172,172,,,,D,Raw,F,Open,Yes
5,Kaitlin Haddad,,NJ,75,73.3,,33,,,,,,,,,145,155,-162.5,155,155,,,,D,Raw,F,Open,Yes
6,Heidi Pilling,,UT,75,73.9,,47,,,,,,,,,127.5,132.5,-137.5,132.5,132.5,,,,D,Raw,F,Open,Yes
1,Charlie Cheryl Ritchie,,OR,82.5,81.6,,50,,,,,,,,,167.5,180,187.5,187.5,187.5,,,190,D,Raw,F,Open,Yes
2,Danielle Massingill,,CO,82.5,75.4,,29,,,,,,,,,170,177.5,-185,177.5,177.5,,,,D,Raw,F,Open,Yes
3,Kerrie Montalvan,,SC,82.5,79.8,,39,,,,,,,,,175,-182.5,-182.5,175,175,,,,D,Raw,F,Open,Yes
4,Kimberly Brown,,CA,82.5,81.5,,55,,,,,,,,,160,172.5,-181.5,172.5,172.5,,,,D,Raw,F,Open,Yes
5,Sierra Marshman,,OR,82.5,80.7,,23,,,,,,,,,160,-175,-175,160,160,,,,D,Raw,F,Open,Yes
1,Franchesca Vermillion,,OR,90,87.4,,41,,,,,,,,,157.5,168,170,170,170,,,,D,Raw,F,Open,Yes
2,Christina Ullman,,OH,90,87.5,,50,,,,,,,,,150,157.5,162.5,162.5,162.5,,,165,D,Raw,F,Open,Yes
1,Janette Delgado,,CA,90+,108.4,,32,,,,,,,,,190,195,205,205,205,,,,D,Raw,F,Open,Yes
1,Lori Dilling,,OR,60,56.8,,41,,,,,,,,,145,156,-165,156,156,,,,D,Raw,F,Masters 40-44,Yes
1,Juanita Leong,Canada,AB,60,58.3,,47,,,,,,,,,125.5,132.5,-137.5,132.5,132.5,,,,D,Raw,F,Masters 45-49,Yes
1,Sharon Bohling,,IN,60,58.4,,58,,,,,,,,,135,142.5,150,150,150,,,155,D,Raw,F,Masters 55-59,Yes
2,Judy Oberlander,,CA,60,58.2,,58,,,,,,,,,120,130,-137.5,130,130,,,,D,Raw,F,Masters 55-59,Yes
1,Leslie Gurr,Canada,AB,67.5,61.1,,53,,,,,,,,,165,170,175,175,175,,,,D,Raw,F,Masters 50-54,Yes
2,Shannon Paulson,,CA,67.5,66,,51,,,,,,,,,130,135,-137.5,135,135,,,,D,Raw,F,Masters 50-54,Yes
1,Tessa Yelvington,,TX,67.5,65.4,,59,,,,,,,,,117.5,125,-132.5,125,125,,,,D,Raw,F,Masters 55-59,Yes
1,Deborah Hasten,,MO,67.5,64.9,,65,,,,,,,,,108,112.5,117.5,117.5,117.5,,,,D,Raw,F,Masters 65-69,Yes
1,Marybeth Chow,,OR,67.5,65.1,,71,,,,,,,,,102.5,-105,-105,102.5,102.5,,,,D,Raw,F,Masters 70-74,Yes
1,Samantha Day,,CA,75,74.1,,42,,,,,,,,,170,177.5,185,185,185,,,,D,Raw,F,Masters 40-44,Yes
1,Michelle Madruga,,CA,75,73,,46,,,,,,,,,167.5,172,-175,172,172,,,,D,Raw,F,Masters 45-49,Yes
2,Heidi Pilling,,UT,75,73.9,,47,,,,,,,,,127.5,132.5,-137.5,132.5,132.5,,,,D,Raw,F,Masters 45-49,Yes
1,Kristine Kobza,,AZ,75,72.4,,54,,,,,,,,,172.5,182.5,192.5,192.5,192.5,,,195,D,Raw,F,Masters 50-54,Yes
1,Brenda Helmer,Canada,AB,75,74.4,,62,,,,,,,,,105,112.5,-117.5,112.5,112.5,,,,D,Raw,F,Masters 60-64,Yes
1,Danuta McCullagh,,CA,75,71,,72,,,,,,,,,100,105,108,108,108,,,,D,Raw,F,Masters 70-74,Yes
1,Charlie Cheryl Ritchie,,OR,82.5,81.6,,50,,,,,,,,,167.5,180,187.5,187.5,187.5,,,190,D,Raw,F,Masters 50-54,Yes
1,Kimberly Brown,,CA,82.5,81.5,,55,,,,,,,,,160,172.5,-181.5,172.5,172.5,,,,D,Raw,F,Masters 55-59,Yes
G,Pamela Carter,,CA,82.5,78.4,,59,,,,,,,,,77.5,85,92.5,92.5,92.5,,,,D,Raw,F,Masters 55-59,Yes
1,Franchesca Vermillion,,OR,90,87.4,,41,,,,,,,,,157.5,168,170,170,170,,,,D,Raw,F,Masters 40-44,Yes
1,Megan Wiesner,,CA,90,87.6,,46,,,,,,,,,182.5,190,192.5,192.5,192.5,,,197.5,D,Raw,F,Masters 45-49,Yes
1,Christina Ullman,,OH,90,87.5,,50,,,,,,,,,150,157.5,162.5,162.5,162.5,,,165,D,Raw,F,Masters 50-54,Yes
1,Lynn Bassett,,UT,90+,111.6,,56,,,,,,,,,147.5,155,-165,155,155,,,,D,Raw,F,Masters 55-59,Yes
1,Diane Bowers,,WA,90+,102.6,,69,,,,,,,,,107.5,115,-117.5,115,115,,,,D,Raw,F,Masters 65-69,Yes
1,Jeremy Lapham,,CA,56,54.2,,17,,,,,,,,,152.5,157.5,-160,157.5,157.5,,,,D,Raw,M,Juniors 15-19,Yes
1,Gabriel Youngquist,,TX,75,72.7,,23,,,,,,,,,247.5,-260,-260,247.5,247.5,,,,D,Raw,M,Juniors 20-23,Yes
1,Zander Guckian,,TX,82.5,81.2,,16,,,,,,,,,192.5,210,227.5,227.5,227.5,,,,D,Raw,M,Juniors 15-19,Yes
1,Lucas Pagano,,MO,90,89.4,,21,,,,,,,,,227.5,245,-250,245,245,,,,D,Raw,M,Juniors 20-23,Yes
1,Justin Wyms,,MO,140+,220.3,,23,,,,,,,,,260,272.5,290,290,290,,,,D,Raw,M,Juniors 20-23,Yes
1,Khemarintr Suwanchote,,WA,60,59.3,,28,,,,,,,,,231,245.5,260.5,260.5,260.5,,,,D,Raw,M,Open,Yes
2,Newton Cheng,,CA,60,59,,43,,,,,,,,,231,245,-255.5,245,245,,,,D,Raw,M,Open,Yes
1,Edwin Taygon,,CA,67.5,66.9,,29,,,,,,,,,-230,235,240,240,240,,,,D,Raw,M,Open,Yes
2,Don Collins,,CA,67.5,65.3,,61,,,,,,,,,205,210,213,213,213,,,,D,Raw,M,Open,Yes
3,Akul Sharma,,CA,67.5,67.3,,26,,,,,,,,,190,205,-215,205,205,,,,D,Raw,M,Open,Yes
4,John Wehrli,,CA,67.5,65.2,,57,,,,,,,,,175,-186,186,186,186,,,,D,Raw,M,Open,Yes
1,Joe Hays,,MN,75,73,,61,,,,,,,,,190,-205,-205,190,190,,,,D,Raw,M,Open,Yes
DQ,Christopher Vashi,,OH,75,73.5,,45,,,,,,,,,,,,,,,,,D,Raw,M,Open,Yes
1,Abner Nazario,,NJ,82.5,81,,28,,,,,,,,,290,322.5,-350.5,322.5,322.5,,,,D,Raw,M,Open,Yes
2,Jesse Coffey #1,,NC,82.5,81.6,,36,,,,,,,,,272.5,288.5,-295,288.5,288.5,,,,D,Raw,M,Open,Yes
3,David Gibson #3,,GA,82.5,77.3,,43,,,,,,,,,-242.5,242.5,252.5,252.5,252.5,,,,D,Raw,M,Open,Yes
4,Zander Guckian,,TX,82.5,81.2,,16,,,,,,,,,192.5,210,227.5,227.5,227.5,,,,D,Raw,M,Open,Yes
1,Andrew Young #1,,NY,90,88.8,,34,,,,,,,,,230,240,-250,240,240,,,,D,Raw,M,Open,Yes
1,Andre Palmer,,FL,100,98.7,,26,,,,,,,,,300,312.5,-320,312.5,312.5,,,,D,Raw,M,Open,Yes
G,John Domingo,,NV,100,90.6,,25,,,,,,,,,205,227.5,235,235,235,,,,D,Raw,M,Open,Yes
1,Terrance McBride,,CA,110,108.9,,27,,,,,,,,,320,330,-340,330,330,,,,D,Raw,M,Open,Yes
2,David Clark,,AZ,110,105.6,,28,,,,,,,,,280,295,310,310,310,,,,D,Raw,M,Open,Yes
3,Michael Gilfix,,TX,110,106,,41,,,,,,,,,-247.5,252.5,262.5,262.5,262.5,,,,D,Raw,M,Open,Yes
DQ,Marquis Ware,,CA,110,109.9,,30,,,,,,,,,-270,-290,-290,,,,,,D,Raw,M,Open,Yes
1,Boris Terry,,CA,125,119.4,,37,,,,,,,,,320,-345,-345,320,320,,,,D,Raw,M,Open,Yes
2,Alejandro Wickham,,PA,125,123.3,,36,,,,,,,,,290,310,317.5,317.5,317.5,,,,D,Raw,M,Open,Yes
1,Dennis Alegre,,CA,140,126.9,,56,,,,,,,,,265,291.5,-295,291.5,291.5,,,,D,Raw,M,Open,Yes
2,Ronnie Castro,,CA,140,139,,39,,,,,,,,,252.5,257.5,265,265,265,,,,D,Raw,M,Open,Yes
3,Adam Kerrigan,,NV,140,136.1,,41,,,,,,,,,240,255,-278,255,255,,,,D,Raw,M,Open,Yes
1,Cody Chapel,,ND,140+,156.6,,33,,,,,,,,,320,333,342.5,342.5,342.5,,,,D,Raw,M,Open,Yes
2,Justin Wyms,,MO,140+,220.3,,23,,,,,,,,,260,272.5,290,290,290,,,,D,Raw,M,Open,Yes
DQ,Mau Hafoka,,CA,140+,161.2,,29,,,,,,,,,-325,-325,-332.5,,,,,,D,Raw,M,Open,Yes
1,Newton Cheng,,CA,60,59,,43,,,,,,,,,231,245,-255.5,245,245,,,,D,Raw,M,Masters 40-44,Yes
1,John Wehrli,,CA,67.5,65.2,,57,,,,,,,,,175,-186,186,186,186,,,,D,Raw,M,Masters 55-59,Yes
1,Don Collins,,CA,67.5,65.3,,61,,,,,,,,,205,210,213,213,213,,,,D,Raw,M,Masters 60-64,Yes
1,Louis Magiera,,RI,67.5,65.5,,76,,,,,,,,,140,157.5,,157.5,157.5,,,,D,Raw,M,Masters 75-79,Yes
DQ,Christopher Vashi,,OH,75,73.5,,45,,,,,,,,,,,,,,,,,D,Raw,M,Masters 45-49,Yes
1,Jeffrey Stanley,,CA,75,67.7,,63,,,,,,,,,180,190,200,200,200,,,,D,Raw,M,Masters 60-64,Yes
2,Joe Hays,,MN,75,73,,61,,,,,,,,,190,-205,-205,190,190,,,,D,Raw,M,Masters 60-64,Yes
1,Irvin Gerbrandt,Canada,AB,75,72.7,,68,,,,,,,,,150,160,-167.5,160,160,,,,D,Raw,M,Masters 65-69,Yes
1,Jim Gallagher #1,,CA,75,71.1,,86,,,,,,,,,135,147.5,155,155,155,,,,D,Raw,M,Masters 80+,Yes
1,David Gibson #3,,GA,82.5,77.3,,43,,,,,,,,,-242.5,242.5,252.5,252.5,252.5,,,,D,Raw,M,Masters 40-44,Yes
1,Jesus Fragoso,,ID,82.5,80.7,,48,,,,,,,,,-250,250,-262.5,250,250,,,,D,Raw,M,Masters 45-49,Yes
2,Donnie Campbell,,TX,82.5,81.7,,47,,,,,,,,,210,227.5,232.5,232.5,232.5,,,,D,Raw,M,Masters 45-49,Yes
1,Greg Eyerly,,OR,82.5,81.8,,56,,,,,,,,,185,192.5,205,205,205,,,,D,Raw,M,Masters 55-59,Yes
1,Hiram Chee,,CA,82.5,80.7,,62,,,,,,,,,200,216,-222.5,216,216,,,,D,Raw,M,Masters 60-64,Yes
1,Michael Heisman,,CA,82.5,80.3,,70,,,,,,,,,172.5,177.5,-180,177.5,177.5,,,,D,Raw,M,Masters 70-74,Yes
1,Carlos Acosta #1,,CA,82.5,80.1,,82,,,,,,,,,-107.5,117.5,127,127,127,,,,D,Raw,M,Masters 80+,Yes
1,Jensen Monterrey,,CA,90,89.5,,48,,,,,,,,,220,237.5,,237.5,237.5,,,,D,Raw,M,Masters 45-49,Yes
1,Jason Roberts #2,,HI,90,88.6,,52,,,,,,,,,200,215,-227.5,215,215,,,,D,Raw,M,Masters 50-54,Yes
1,Bryan Hartman,,CA,90,89.1,,55,,,,,,,,,197.5,-205,-205,197.5,197.5,,,,D,Raw,M,Masters 55-59,Yes
1,Scott Sciaretta #1,,MT,90,89,,60,,,,,,,,,207.5,220,232.5,232.5,232.5,,,,D,Raw,M,Masters 60-64,Yes
1,Terence Plotsky,,CA,90,86.5,,80,,,,,,,,,123,127.5,-130,127.5,127.5,,,,D,Raw,M,Masters 80+,Yes
1,Derek Sherlock,,CO,100,99.4,,59,,,,,,,,,-210,220,-232.5,220,220,,,,D,Raw,M,Masters 55-59,Yes
1,Michael Gilfix,,TX,110,106,,41,,,,,,,,,-247.5,252.5,262.5,262.5,262.5,,,,D,Raw,M,Masters 40-44,Yes
1,Darvis Simms,,NC,110,103.8,,62,,,,,,,,,227.5,237.5,240,240,240,,,,D,Raw,M,Masters 60-64,Yes
2,Anand Pai,,CA,110,107.3,,61,,,,,,,,,215,230,-235,230,230,,,,D,Raw,M,Masters 60-64,Yes
1,Steve Busch,,CA,110,104.5,,69,,,,,,,,,207.5,222.5,-232.5,222.5,222.5,,,,D,Raw,M,Masters 65-69,Yes
1,Raymond Halling,,WA,110,102.1,,84,,,,,,,,,100,110,120,120,120,,,,D,Raw,M,Masters 80+,Yes
1,Mike Honn,,CA,125,121.5,,52,,,,,,,,,237.5,-245,-245,237.5,237.5,,,,D,Raw,M,Masters 50-54,Yes
1,Karl Davenport,,NC,125,118.9,,56,,,,,,,,,175,192.5,-207.5,192.5,192.5,,,,D,Raw,M,Masters 55-59,Yes
1,Peter Pauline,,GA,125,111,,66,,,,,,,,,220,-235,-235,220,220,,,,D,Raw,M,Masters 65-69,Yes
1,Adam Kerrigan,,NV,140,136.1,,41,,,,,,,,,240,255,-278,255,255,,,,D,Raw,M,Masters 40-44,Yes
1,Dennis Alegre,,CA,140,126.9,,56,,,,,,,,,265,291.5,-295,291.5,291.5,,,,D,Raw,M,Masters 55-59,Yes
DQ,Chris Dodson,,CA,140,128.9,,56,,,,,,,,,,,,,,,,,D,Raw,M,Masters 55-59,Yes
1,Mike Shae,,MT,140+,161,,51,,,,,,,,,220,235,-248,235,235,,,,D,Raw,M,Masters 50-54,Yes
2,Sean Forson,,CA,140+,159.3,,52,,,,,,,,,207.5,220,-230,220,220,,,,D,Raw,M,Masters 50-54,Yes
1,Matthew Fragner,,CA,140+,140.8,,67,,,,,,,,,155,180,187.5,187.5,187.5,,,,D,Raw,M,Masters 65-69,Yes
1,Stephanie Stickley,,CA,48,46.6,,54,,,,,,,,,117.5,125,-133,125,125,,,,D,Single-ply,F,Open,Yes
1,Heena Patel,,CO,60,59.2,,49,,,,,,,,,-165,-165,165,165,165,,,,D,Single-ply,F,Open,Yes
2,Linda Kelly,,AZ,60,59.9,,56,,,,,,,,,127.5,-135,,127.5,127.5,,,,D,Single-ply,F,Open,Yes
1,Stephanie Stickley,,CA,48,46.6,,54,,,,,,,,,117.5,125,-133,125,125,,,,D,Single-ply,F,Masters 50-54,Yes
1,Heena Patel,,CO,60,59.2,,49,,,,,,,,,-165,-165,165,165,165,,,,D,Single-ply,F,Masters 45-49,Yes
1,Linda Kelly,,AZ,60,59.9,,56,,,,,,,,,127.5,-135,,127.5,127.5,,,,D,Single-ply,F,Masters 55-59,Yes
1,Betsy Spann,,CA,60,58.5,,64,,,,,,,,,115,122.5,130,130,130,,,135,D,Single-ply,F,Masters 60-64,Yes
1,Ispandiyar Kairzhan,,,60,59.3,,24,,,,,,,,,205,215,228,228,228,,,,D,Single-ply,M,Open,Yes
2,Jarred Benitez,,CA,60,59.5,,35,,,,,,,,,210,227.5,-235,227.5,227.5,,,,D,Single-ply,M,Open,Yes
1,Robert Perez,,TX,75,74.4,,26,,,,,,,,,200,222.5,230,230,230,,,,D,Single-ply,M,Open,Yes
1,Bryan Schermerhorn,,WA,90,87.3,,29,,,,,,,,,240,252.5,262.5,262.5,262.5,,,,D,Single-ply,M,Open,Yes
1,Dave Cooper,,AZ,82.5,80.3,,46,,,,,,,,,220,-240,-240,220,220,,,,D,Single-ply,M,Masters 45-49,Yes
1,Joe Walden,,KS,82.5,80,,65,,,,,,,,,162.5,172.5,182.5,182.5,182.5,,,188,D,Single-ply,M,Masters 65-69,Yes
1,Peter Murphy,,CA,100,97.6,,70,,,,,,,,,185,,,185,185,,,,D,Single-ply,M,Masters 70-74,Yes
1,John Thomas,,OR,125,121.8,,56,,,,,,,,,235,250,260,260,260,,,,D,Single-ply,M,Masters 55-59,Yes
