﻿Tabelle1
GRAWA Westdeutsche Meisterschaft 22.11.2008 Bankdrücken in Düren
Name                                                               Ort                 K-Gewicht   1. Versuch   2. Versuch   3. Versuch   Punkte   Platz
Frauen
Doreen Losensky                                                    Bergheim            70,3        95           100          105          159,8    1
Junioren
Aryan Tangshir                                                     Düren               108,2       140          160          170          151,3    1
Daniel Herold                                                      Lich                80          120          130          140          137,02   2
Fabian Ohleff                                                      Düren               111,3       140          150          160          132,15   3
Alexander Papazoglon                                               Leverkusen          88,4        130          140          140          -        -
Sebastian Nübel                                                    Leverkusen          101,5       140          140          140          -        -
Aktive
Ingo Seydel                                                        Leverkusen          101         200          210          220          191,31   1
Thomas Godesberg                                                   Düren               112,8       150          180          190          166,82   2
Alexander Bergau                                                   Düsseldorf          96          165          170          175          163,1    3
Andreas Wozniak                                                    Düren               125,9       180          190          200          162,83   4
Domenico Favara                                                    Wuppertal           72,7        110          120          120          138,6    5
Jürgen Vogel                                                       Köln                88,5        125          135          140          132,16   6
Sergej Arent                                                       Grevenbroich        125,2       180          180          180          -        -
Masters
Walter Kurda (55)                                                  Köln                115,7       190          200          205          218      1
Bernd Daume (51)                                                   Leverkusen          81          130          140          140          158,52   2
Roland Kurtz (40)                                                  Bergisch Gladbach   117,5       155          165          165          134,54   3
Seite 1
