Division,WeightClassKg,Place,Name,Team,BodyweightKg,Best3SquatKg,Best3BenchKg,Best3DeadliftKg,TotalKg,Equipment,Event,Sex
Boys,51.71,1,Micheal Avelleneda,Stafford,47.17,74.84,38.56,86.18,199.58,Single-ply,SBD,M
Boys,51.71,2,Jacory Bellnamy,Houston Madison,49.26,61.23,38.56,58.97,158.76,Single-ply,SBD,M
Boys,55.79,1,George Bankhead,Freeport Brazosport,53.52,149.69,88.45,183.7,421.84,Single-ply,SBD,M
Boys,55.79,2,Trey Marrero,Alvin,54.07,140.61,81.65,142.88,365.14,Single-ply,SBD,M
Boys,55.79,3,Cecilio Hernandez,Dickinson,55.7,133.81,81.65,142.88,358.34,Single-ply,SBD,M
Boys,55.79,4,Matt Rice,Conroe Oak Ridge,55.61,102.06,68.04,108.86,278.96,Single-ply,SBD,M
Boys,55.79,5,Marquise Butler,Houston Madison,54.7,70.31,38.56,83.91,192.78,Single-ply,SBD,M
Boys,55.79,DQ,Francisco Pineda,Houston Milby,55.79,,,,,Single-ply,SBD,M
Boys,59.87,1,Kenny Nguyen,Dickinson,59.42,201.85,158.76,199.58,560.19,Single-ply,SBD,M
Boys,59.87,2,Christian Diaz,Katy Mayde Creek,59.87,140.61,92.99,158.76,392.36,Single-ply,SBD,M
Boys,67.13,3,Bryston Braziel,Stafford,59.96,154.22,77.11,156.49,387.82,Single-ply,SBD,M
Boys,59.87,4,Donavan Lee,Katy Mayde Creek,58.24,124.74,74.84,136.08,335.66,Single-ply,SBD,M
Boys,59.87,5,Hayden Gula,Conroe Oak Ridge,59.51,102.06,68.04,102.06,272.16,Single-ply,SBD,M
Boys,59.87,6,Matthew Hoffman #2,Alvin,57.33,81.65,52.16,117.93,251.74,Single-ply,SBD,M
Boys,59.87,DQ,George San Miguel,Houston Milby,59.87,,,,,Single-ply,SBD,M
Boys,67.13,1,Jamal Simms,Houston Madison,67.04,208.65,115.67,213.19,537.51,Single-ply,SBD,M
Boys,67.13,2,Jerrell Garner,Houston Madison,66.95,183.7,102.06,190.51,476.27,Single-ply,SBD,M
Boys,67.13,3,Tyler Marcel,Conroe Oak Ridge,63.32,165.56,108.86,185.97,460.4,Single-ply,SBD,M
Boys,67.13,4,Alec DeLeon,Dickinson,65.5,181.44,99.79,174.63,455.86,Single-ply,SBD,M
Boys,67.13,5,Tanner Kuhle,Conroe Oak Ridge,64.86,142.88,104.33,165.56,412.77,Single-ply,SBD,M
Boys,67.13,6,Hernan Rameriz,Alvin,67.13,133.81,97.52,133.81,365.14,Single-ply,SBD,M
Boys,67.13,7,David Pina,Dickinson,65.23,136.08,74.84,151.95,362.87,Single-ply,SBD,M
Boys,67.13,8,Leonard Fields,Houston Yates,66.95,115.67,77.11,170.1,362.87,Single-ply,SBD,M
Boys,67.13,9,Jonathan Marillo,Pasadena Rayburn,61.42,136.08,83.91,129.27,349.27,Single-ply,SBD,M
Boys,67.13,10,Khalil Wagner,Houston Yates,61.05,65.77,43.09,106.59,215.46,Single-ply,SBD,M
Boys,67.13,DQ,Christian Cain,Freeport Brazosport,67.13,,,,,Single-ply,SBD,M
Boys,74.84,1,Calvin Laskey,Katy Mayde Creek,68.22,158.76,108.86,165.56,433.18,Single-ply,SBD,M
Boys,74.84,2,Jesse Canell,Stafford,69.04,147.42,120.2,154.22,421.84,Single-ply,SBD,M
Boys,74.84,3,Cournelious Vaughans,Dickinson,73.84,156.49,86.18,165.56,408.23,Single-ply,SBD,M
Boys,74.84,4,Tahj Edwards,Freeport Brazosport,71.58,156.49,81.65,165.56,403.7,Single-ply,SBD,M
Boys,74.84,5,Taylor Givens,Stafford,71.12,140.61,90.72,149.69,381.02,Single-ply,SBD,M
Boys,74.84,6,Nick Prescott,Dickinson,71.85,142.88,92.99,140.61,376.48,Single-ply,SBD,M
Boys,74.84,7,Dominique Ratcliff,Houston Yates,74.57,108.86,77.11,142.88,328.85,Single-ply,SBD,M
Boys,74.84,8,Louis Santiago,Houston Yates,70.22,83.91,52.16,106.59,242.67,Single-ply,SBD,M
Boys,74.84,9,Cole White,Freeport Brazosport,73.03,145.15,,,145.15,Single-ply,S,M
Boys,74.84,DQ,Eduardo Ayala,Pasadena Rayburn,74.84,,,,,Single-ply,S,M
Boys,74.84,DQ,Brandon Malone,Houston Madison,74.84,,,,,Single-ply,S,M
Boys,74.84,DQ,Cameron Simms,Houston Madison,70.22,,,,,Single-ply,S,M
Boys,74.84,DQ,Demrcus Durst,Conroe Oak Ridge,74.84,,,,,Single-ply,S,M
Boys,74.84,DQ,Claude Lowe,Freeport Brazosport,74.84,,,,,Single-ply,S,M
Boys,74.84,DQ,Ronald Winston,Katy Mayde Creek,74.84,,,,,Single-ply,S,M
Boys,89.81,1,Kaleb Campbell,Alief Taylor,82.19,215.46,113.4,183.7,512.56,Single-ply,SBD,M
Boys,82.1,2,Chris Okwegba,Alief Taylor,78.47,183.7,102.06,183.7,469.47,Single-ply,SBD,M
Boys,82.1,3,Jonothan Votaire,Conroe Oak Ridge,80.56,158.76,99.79,181.44,439.98,Single-ply,SBD,M
Boys,82.1,4,Leeland Young,Dickinson,80.01,142.88,88.45,167.83,399.16,Single-ply,SBD,M
Boys,82.1,5,Guido Capello,Pasadena Rayburn,81.01,142.88,97.52,158.76,399.16,Single-ply,SBD,M
Boys,82.1,6,Dodi Vasquez,Dickinson,81.83,149.69,92.99,136.08,378.75,Single-ply,SBD,M
Boys,82.1,7,Duy Nguyen,Alief Taylor,80.74,113.4,72.57,142.88,328.85,Single-ply,SBD,M
Boys,82.1,8,Nicholas Sorto,Alief Taylor,77.66,113.4,61.23,136.08,310.71,Single-ply,SBD,M
Boys,82.1,DQ,Keenan Houston,Houston Madison,82.1,,,,,Single-ply,SBD,M
Boys,82.1,DQ,Darius Thornton,Houston Westbury,82.1,,,,,Single-ply,SBD,M
Boys,82.1,DQ,Chane Bodden,Katy Mayde Creek,82.1,,,,,Single-ply,SBD,M
Boys,82.1,DQ,Jonathon Cooper,Alief Taylor,82.1,,,,,Single-ply,SBD,M
Boys,89.81,1,George Stephenson,Conroe Oak Ridge,88.45,247.21,124.74,231.33,603.28,Single-ply,SBD,M
Boys,89.81,2,Tanner Hohman,Alvin,85,206.38,108.86,192.78,508.02,Single-ply,SBD,M
Boys,89.81,3,Sterling Brumant,Katy Mayde Creek,88.54,197.31,113.4,183.7,494.42,Single-ply,SBD,M
Boys,89.81,4,Marco Flores,Stafford,89.36,188.24,117.93,185.97,492.15,Single-ply,SBD,M
Boys,89.81,5,Xavier Russell,Alief Taylor,83.46,165.56,113.4,181.44,460.4,Single-ply,SBD,M
Boys,89.81,6,Anthony Allison,Dickinson,85,204.12,108.86,136.08,449.06,Single-ply,SBD,M
Boys,89.81,7,Germain Zuniga,Pasadena Rayburn,87.63,165.56,122.47,154.22,442.25,Single-ply,SBD,M
Boys,89.81,8,Mike Chavira,Alvin,83.82,161.03,97.52,161.03,419.57,Single-ply,SBD,M
Boys,89.81,9,Aaron DeLaRosa,Pasadena Rayburn,89.45,158.76,97.52,147.42,403.7,Single-ply,SBD,M
Boys,89.81,10,Chris Calhoun,Houston Westbury,86.64,147.42,88.45,165.56,401.43,Single-ply,SBD,M
Boys,89.81,11,Robert Hurta,Freeport Brazosport,89.54,142.88,68.04,142.88,353.8,Single-ply,SBD,M
Boys,89.81,12,Marqius Coleman,Dickinson,89.81,158.76,,,158.76,Single-ply,S,M
Boys,89.81,12,Cleaon Jolly,Dickinson,83.19,124.74,79.38,147.42,351.53,Single-ply,SBD,M
Boys,89.81,13,Victor Gaines,Houston Yates,83.91,102.06,65.77,142.88,310.71,Single-ply,SBD,M
Boys,99.79,1,Roderick Wiltz,Houston Madison,99.06,278.96,158.76,272.16,709.87,Single-ply,SBD,M
Boys,99.79,2,Gerrardo Torres,Houston Madison,91.17,219.99,129.27,238.14,587.4,Single-ply,SBD,M
Boys,99.79,3,Mickeal Arvie,Houston Madison,90.45,172.37,140.61,219.99,532.97,Single-ply,SBD,M
Boys,99.79,4,Jerry Medford,Alief Taylor,96.8,188.24,124.74,206.38,519.36,Single-ply,SBD,M
Boys,99.79,5,Justin Edwards,Conroe Oak Ridge,98.7,208.65,124.74,174.63,508.02,Single-ply,SBD,M
Boys,99.79,6,Corey Green,Freeport Brazosport,94.8,183.7,106.59,185.97,476.27,Single-ply,SBD,M
Boys,99.79,7,Kelvin Turner,Houston Westbury,95.89,165.56,106.59,183.7,455.86,Single-ply,SBD,M
Boys,99.79,8,Malcolm Pringle,Houston Westbury,97.61,147.42,102.06,183.7,433.18,Single-ply,SBD,M
Boys,99.79,9,Patrick Jordan,Houston Madison,90.9,183.7,102.06,140.61,426.38,Single-ply,SBD,M
Boys,99.79,10,Miles Valerie,Alief Taylor,93.44,151.95,113.4,158.76,424.11,Single-ply,SBD,M
Boys,99.79,11,Kyrien Jordan,Alvin,93.71,151.95,117.93,154.22,424.11,Single-ply,SBD,M
Boys,99.79,DQ,Simean Houston,Houston Westbury,99.79,,,,,Single-ply,SBD,M
Boys,99.79,DQ,Alvin Nguyen,Alief Taylor,99.79,,,,,Single-ply,SBD,M
Boys,99.79,DQ,Obo Okoronkwo,Alief Taylor,99.79,,,,,Single-ply,SBD,M
Boys,99.79,DQ,Trevorris Johnson,Alief Taylor,99.79,,,,,Single-ply,SBD,M
Boys,109.77,1,Justin Latanero,Conroe Oak Ridge,103.96,258.55,176.9,219.99,655.44,Single-ply,SBD,M
Boys,109.77,2,Mike Alviar,Freeport Brazosport,106.05,233.6,158.76,204.12,596.47,Single-ply,SBD,M
Boys,109.77,3,Devar Brown,Houston Westbury,104.05,192.78,145.15,240.4,578.33,Single-ply,SBD,M
Boys,109.77,4,Reno Dominguez,Katy Mayde Creek,103.51,233.6,115.67,197.31,546.58,Single-ply,SBD,M
Boys,109.77,5,Eduardo Moran,Katy Mayde Creek,108.68,215.46,131.54,197.31,544.31,Single-ply,SBD,M
Boys,109.77,6,Miguel Neaves,Pasadena Rayburn,109.5,226.8,113.4,197.31,537.51,Single-ply,SBD,M
Boys,109.77,7,Chris Dowdy,Dickinson,106.41,204.12,117.93,190.51,512.56,Single-ply,SBD,M
Boys,109.77,8,Andrew Velasco,Katy Mayde Creek,108.05,197.31,113.4,181.44,492.15,Single-ply,SBD,M
Boys,109.77,9,Kaylond North,Dickinson,107.05,192.78,99.79,181.44,474,Single-ply,SBD,M
Boys,109.77,10,Darius Fisher,Pasadena Rayburn,106.14,167.83,113.4,151.95,433.18,Single-ply,SBD,M
Boys,109.77,11,Maximilliano Munoz,Pasadena Rayburn,104.87,158.76,108.86,145.15,412.77,Single-ply,SBD,M
Boys,109.77,12,Jared Reedy,Dickinson,101.42,149.69,79.38,122.47,351.53,Single-ply,SBD,M
Boys,109.77,13,Oshaun Lewis,Houston Westbury,108.41,,113.4,195.04,308.44,Single-ply,BD,M
Boys,109.77,DQ,Joseph Smith,Houston Westbury,109.77,,,,,Single-ply,BD,M
Boys,109.77,DQ,Charles Flores,Dickinson,109.77,,,,,Single-ply,BD,M
Boys,124.74,1,Curtis Emery,Alvin,115.3,258.55,145.15,240.4,644.1,Single-ply,SBD,M
Boys,124.74,2,James Marin,Alvin,121.56,226.8,172.37,219.99,619.15,Single-ply,SBD,M
Boys,124.74,3,Chris Shepherd,Alvin,113.22,242.67,138.35,224.53,605.55,Single-ply,SBD,M
Boys,124.74,4,Joshua McKinnies,Katy Mayde Creek,121.93,233.6,147.42,215.46,596.47,Single-ply,SBD,M
Boys,124.74,5,Ismail Hassan,Katy Mayde Creek,115.67,238.14,147.42,204.12,589.67,Single-ply,SBD,M
Boys,124.74,6,Jorge Robles,Pasadena Rayburn,110.22,215.46,106.59,165.56,487.61,Single-ply,SBD,M
Boys,124.74,7,Chance Cummings #3,Dickinson,123.65,185.97,99.79,192.78,478.54,Single-ply,SBD,M
Boys,124.74,8,Ernesto Reales,Dickinson,119.29,183.7,106.59,181.44,471.74,Single-ply,SBD,M
Boys,124.74,9,Cristian Benavidez,Pasadena Rayburn,119.84,163.29,122.47,161.03,446.79,Single-ply,SBD,M
Boys,124.74,10,Clifton Haggen,Houston Madison,123.92,136.08,95.25,149.69,381.02,Single-ply,SBD,M
Boys,124.74,DQ,Marlon Jackson,Houston Westbury,124.74,,,,,Single-ply,SBD,M
Boys,124.74,DQ,Jonathan Becinas,Houston Westbury,124.74,,,,,Single-ply,SBD,M
Boys,124.74,DQ,Nestor Mendez,Freeport Brazosport,124.74,,,,,Single-ply,SBD,M
Boys,124.74+,1,William Simpson,Houston Madison,135.35,278.96,158.76,238.14,675.85,Single-ply,SBD,M
Boys,124.74+,2,Ray Madrigal,Freeport Brazosport,131.27,231.33,174.63,217.72,623.69,Single-ply,SBD,M
Boys,124.74+,3,Darin Slater,Dickinson,147.42,249.48,127.01,185.97,562.45,Single-ply,SBD,M
Boys,124.74+,4,Alonzo Crittendon,Dickinson,135.99,272.16,102.06,174.63,548.85,Single-ply,SBD,M
Boys,124.74+,5,Gip Sills,Pasadena Rayburn,137.44,217.72,115.67,188.24,521.63,Single-ply,SBD,M
Boys,124.74+,6,Chance Harmanson,Dickinson,129.91,210.92,113.4,192.78,517.1,Single-ply,SBD,M
Boys,124.74+,7,Jesus Salazar,Pasadena Rayburn,138.89,172.37,154.22,176.9,503.49,Single-ply,SBD,M
Boys,124.74+,8,Darius Celestine,Conroe Oak Ridge,130.63,172.37,136.08,192.78,501.22,Single-ply,SBD,M
Boys,124.74+,9,Ryan Sagmiller,Conroe Oak Ridge,135.26,167.83,136.08,197.31,501.22,Single-ply,SBD,M
Boys,124.74+,10,Anietie Etuk,Dickinson,125.19,174.63,106.59,190.51,471.74,Single-ply,SBD,M
Boys,124.74+,11,Austin Closs,Freeport Brazosport,137.89,188.24,106.59,174.63,469.47,Single-ply,SBD,M
Boys,124.74+,12,Titus Bryant,Houston Yates,126.92,140.61,102.06,179.17,421.84,Single-ply,SBD,M
Boys,124.74+,13,Anthonie Thomas,Houston Madison,136.08,278.96,,,278.96,Single-ply,S,M
Boys,124.74+,DQ,Christian Farciert,Freeport Brazosport,125.19,,,,,Single-ply,S,M
Boys,124.74+,DQ,Jamie Russell,Houston Madison,157.4,145.15,65.77,136.08,,Single-ply,SBD,M
